(export (version D)
  (design
    (source /home/apralat/Documents/BeerBob_HW/BeerBob.sch)
    (date "Fri 30 Nov 2018 18:15:34 CET")
    (tool "Eeschema 5.0.1")
    (sheet (number 1) (name /) (tstamps /)
      (title_block
        (title BeerBob)
        (company "Open Brewery")
        (rev 1.1)
        (date)
        (source BeerBob.sch)
        (comment (number 1) (value https://gitlab.com/OpenBrewery/BeerBob_HW))
        (comment (number 2) (value "Licensed under GPLv2"))
        (comment (number 3) (value "and data aggregation project"))
        (comment (number 4) (value "Beer Bob - Fermentation measurement"))))
    (sheet (number 2) (name /B_PSU/) (tstamps /5AEB63E9/)
      (title_block
        (title BeerBob)
        (company "Open Brewery")
        (rev 1.1)
        (date)
        (source BeerBob_PSU.sch)
        (comment (number 1) (value https://gitlab.com/OpenBrewery/BeerBob_HW))
        (comment (number 2) (value "Licensed under GPLv2"))
        (comment (number 3) (value "and data aggregation project"))
        (comment (number 4) (value "Beer Bob - Fermentation measurement")))))
  (components
    (comp (ref C5)
      (value 100n)
      (footprint Capacitor_SMD:C_0603_1608Metric)
      (libsource (lib Device) (part C_Small) (description "Unpolarized capacitor, small symbol"))
      (sheetpath (names /) (tstamps /))
      (tstamp 5AEC32E7))
    (comp (ref U3)
      (value MMA8452QT)
      (footprint beerbob_footprints:NXP_QFN-16-1EP_3x3mm_Pitch0.5mm)
      (libsource (lib beerbob) (part MMA8452QT) (description "3-axis, 12-bit/8-bit digital accelerometer"))
      (sheetpath (names /) (tstamps /))
      (tstamp 5AEC3310))
    (comp (ref R10)
      (value 120k)
      (footprint Resistor_SMD:R_0603_1608Metric)
      (libsource (lib Device) (part R_Small) (description "Resistor, small symbol"))
      (sheetpath (names /) (tstamps /))
      (tstamp 5AEC331F))
    (comp (ref R11)
      (value 120k)
      (footprint Resistor_SMD:R_0603_1608Metric)
      (libsource (lib Device) (part R_Small) (description "Resistor, small symbol"))
      (sheetpath (names /) (tstamps /))
      (tstamp 5AEC3326))
    (comp (ref C2)
      (value 100n)
      (footprint Capacitor_SMD:C_0603_1608Metric)
      (libsource (lib Device) (part C_Small) (description "Unpolarized capacitor, small symbol"))
      (sheetpath (names /) (tstamps /))
      (tstamp 5AEC3387))
    (comp (ref R4)
      (value 820k)
      (footprint Resistor_SMD:R_0603_1608Metric)
      (libsource (lib BeerBob-rescue) (part R_Small) (description ""))
      (sheetpath (names /) (tstamps /))
      (tstamp 5AEC339C))
    (comp (ref R1)
      (value 820k)
      (footprint Resistor_SMD:R_0603_1608Metric)
      (libsource (lib Device) (part R_Small) (description "Resistor, small symbol"))
      (sheetpath (names /) (tstamps /))
      (tstamp 5AEC33B2))
    (comp (ref U1)
      (value TMP116)
      (footprint beerbob_footprints:TI_WSON_6P_2x2)
      (libsource (lib beerbob) (part TMP116) (description "TMP116x High-Accuracy, Low-Power, Digital Temperature Sensor"))
      (sheetpath (names /) (tstamps /))
      (tstamp 5AF02628))
    (comp (ref C8)
      (value 100n)
      (footprint Capacitor_SMD:C_0603_1608Metric)
      (libsource (lib Device) (part C_Small) (description "Unpolarized capacitor, small symbol"))
      (sheetpath (names /) (tstamps /))
      (tstamp 5AEF887F))
    (comp (ref C9)
      (value 10u/6.3V)
      (footprint Capacitor_SMD:C_0603_1608Metric)
      (libsource (lib Device) (part C_Small) (description "Unpolarized capacitor, small symbol"))
      (sheetpath (names /) (tstamps /))
      (tstamp 5AEF9022))
    (comp (ref U4)
      (value SHT21D)
      (footprint beerbob_footprints:TI_PWSON_6_3x3)
      (libsource (lib beerbob) (part SHT21D) (description "Humidity and Temperature Sensor IC"))
      (sheetpath (names /) (tstamps /))
      (tstamp 5AEFD1B2))
    (comp (ref J4)
      (value Conn_01x06_Male)
      (footprint beerbob_footprints:Connector-1x06-2.54-SMT)
      (libsource (lib Connector) (part Conn_01x06_Male) (description "Generic connector, single row, 01x06, script generated (kicad-library-utils/schlib/autogen/connector/)"))
      (sheetpath (names /) (tstamps /))
      (tstamp 5AFB45B1))
    (comp (ref R23)
      (value 0R)
      (footprint Resistor_SMD:R_0603_1608Metric)
      (libsource (lib Device) (part R_Small) (description "Resistor, small symbol"))
      (sheetpath (names /) (tstamps /))
      (tstamp 5AFC91F5))
    (comp (ref U2)
      (value ESP32-WROOM-32)
      (footprint RF_Module:ESP32-WROOM-32)
      (datasheet https://www.espressif.com/sites/default/files/documentation/esp32-wroom-32_datasheet_en.pdf)
      (libsource (lib beerbob) (part ESP32-WROOM-32) (description ""))
      (sheetpath (names /) (tstamps /))
      (tstamp 5BFE9135))
    (comp (ref R2)
      (value 120k)
      (footprint Resistor_SMD:R_0603_1608Metric)
      (libsource (lib BeerBob-rescue) (part R_Small) (description ""))
      (sheetpath (names /) (tstamps /))
      (tstamp 5C00ADE6))
    (comp (ref C3)
      (value 100n)
      (footprint Capacitor_SMD:C_0603_1608Metric)
      (libsource (lib Device) (part C_Small) (description "Unpolarized capacitor, small symbol"))
      (sheetpath (names /) (tstamps /))
      (tstamp 5C00F09D))
    (comp (ref SW1)
      (value SW_Push)
      (footprint Button_Switch_SMD:SW_SPST_FSMSM)
      (libsource (lib Switch) (part SW_Push) (description "Push button switch, generic, two pins"))
      (sheetpath (names /) (tstamps /))
      (tstamp 5C017A7F))
    (comp (ref R3)
      (value 820k)
      (footprint Resistor_SMD:R_0603_1608Metric)
      (libsource (lib BeerBob-rescue) (part R_Small) (description ""))
      (sheetpath (names /) (tstamps /))
      (tstamp 5C019BF0))
    (comp (ref D3)
      (value LED_Small_ALT)
      (footprint LED_SMD:LED_0603_1608Metric)
      (datasheet ~)
      (libsource (lib Device) (part LED_Small_ALT) (description "Light emitting diode, small symbol, filled shape"))
      (sheetpath (names /) (tstamps /))
      (tstamp 5BFF769A))
    (comp (ref R5)
      (value 1K)
      (footprint Resistor_SMD:R_0603_1608Metric)
      (datasheet ~)
      (libsource (lib Device) (part R_Small) (description "Resistor, small symbol"))
      (sheetpath (names /) (tstamps /))
      (tstamp 5BFF9F37))
    (comp (ref R7)
      (value 0R)
      (footprint Resistor_SMD:R_0603_1608Metric)
      (datasheet ~)
      (libsource (lib Device) (part R_Small) (description "Resistor, small symbol"))
      (sheetpath (names /) (tstamps /))
      (tstamp 5C022526))
    (comp (ref R8)
      (value 0R)
      (footprint Resistor_SMD:R_0603_1608Metric)
      (datasheet ~)
      (libsource (lib Device) (part R_Small) (description "Resistor, small symbol"))
      (sheetpath (names /) (tstamps /))
      (tstamp 5C0225C7))
    (comp (ref R6)
      (value 120K)
      (footprint Resistor_SMD:R_0603_1608Metric)
      (datasheet ~)
      (libsource (lib Device) (part R_Small) (description "Resistor, small symbol"))
      (sheetpath (names /) (tstamps /))
      (tstamp 5C02DCE1))
    (comp (ref R9)
      (value 0R)
      (footprint Resistor_SMD:R_0603_1608Metric)
      (datasheet ~)
      (libsource (lib Device) (part R_Small) (description "Resistor, small symbol"))
      (sheetpath (names /) (tstamps /))
      (tstamp 5C046E6B))
    (comp (ref R18)
      (value 0R)
      (footprint Resistor_SMD:R_0603_1608Metric)
      (datasheet ~)
      (libsource (lib Device) (part R_Small) (description "Resistor, small symbol"))
      (sheetpath (names /) (tstamps /))
      (tstamp 5C05CCD1))
    (comp (ref J1)
      (value USB_B_Micro)
      (footprint Connector_USB:USB_Micro-B_Molex_47346-0001)
      (libsource (lib Connector) (part USB_B_Micro) (description "USB Micro Type B connector"))
      (sheetpath (names /B_PSU/) (tstamps /5AEB63E9/))
      (tstamp 5AEB8657))
    (comp (ref C1)
      (value 100n)
      (footprint Capacitor_SMD:C_0603_1608Metric)
      (libsource (lib Device) (part C_Small) (description "Unpolarized capacitor, small symbol"))
      (sheetpath (names /B_PSU/) (tstamps /5AEB63E9/))
      (tstamp 5AEB865E))
    (comp (ref R15)
      (value 820k)
      (footprint Resistor_SMD:R_0603_1608Metric)
      (libsource (lib Device) (part R_Small) (description "Resistor, small symbol"))
      (sheetpath (names /B_PSU/) (tstamps /5AEB63E9/))
      (tstamp 5AEF8208))
    (comp (ref R14)
      (value 120k)
      (footprint Resistor_SMD:R_0603_1608Metric)
      (libsource (lib Device) (part R_Small) (description "Resistor, small symbol"))
      (sheetpath (names /B_PSU/) (tstamps /5AEB63E9/))
      (tstamp 5AEF8229))
    (comp (ref J2)
      (value 223A)
      (footprint beerbob_footprints:BAT_CON)
      (libsource (lib beerbob) (part 223A) (description "Contact; Size: AAA, R03; Mounting: soldered; Batt.no:1"))
      (sheetpath (names /B_PSU/) (tstamps /5AEB63E9/))
      (tstamp 5AEFD58D))
    (comp (ref J3)
      (value 223B)
      (footprint beerbob_footprints:BAT_CON)
      (libsource (lib beerbob) (part 223B) (description "Contact; Size: AAA, R03; Mounting: soldered; Batt.no:1"))
      (sheetpath (names /B_PSU/) (tstamps /5AEB63E9/))
      (tstamp 5AEFD5D5))
    (comp (ref U6)
      (value BQ2971)
      (footprint beerbob_footprints:TEXAS_S_PDSO_N6_1.5x1.5_BB)
      (libsource (lib beerbob) (part BQ2971) (description "bq297xx Cost-Effective Voltage and Current Protection Integrated Circuit for Single-Cell Li-Ion and Li-Polymer Batteries"))
      (sheetpath (names /B_PSU/) (tstamps /5AEB63E9/))
      (tstamp 5AEFD630))
    (comp (ref U8)
      (value TPS6303x)
      (footprint beerbob_footprints:Texas_S-PWSON-N10_BB)
      (libsource (lib beerbob) (part TPS6303x) (description "TPS6303x High Efficiency Single Inductor Buck-Boost Converter With 1-A Switches"))
      (sheetpath (names /B_PSU/) (tstamps /5AEB63E9/))
      (tstamp 5AEFE5CE))
    (comp (ref R20)
      (value 12k)
      (footprint Resistor_SMD:R_0603_1608Metric)
      (libsource (lib Device) (part R_Small) (description "Resistor, small symbol"))
      (sheetpath (names /B_PSU/) (tstamps /5AEB63E9/))
      (tstamp 5AEFFC19))
    (comp (ref U7)
      (value MCP73831)
      (footprint Package_TO_SOT_SMD:SOT-23-5)
      (libsource (lib beerbob) (part MCP73831) (description "Miniature Single-Cell, Fully Integrated Li-Ion, Li-Polymer Charge Management Controllers"))
      (sheetpath (names /B_PSU/) (tstamps /5AEB63E9/))
      (tstamp 5AF00CEA))
    (comp (ref D1)
      (value LED_RED)
      (footprint LED_SMD:LED_0603_1608Metric)
      (libsource (lib Device) (part LED_Small) (description "Light emitting diode, small symbol"))
      (sheetpath (names /B_PSU/) (tstamps /5AEB63E9/))
      (tstamp 5AF018D0))
    (comp (ref R17)
      (value 330R)
      (footprint Resistor_SMD:R_0603_1608Metric)
      (libsource (lib Device) (part R_Small) (description "Resistor, small symbol"))
      (sheetpath (names /B_PSU/) (tstamps /5AEB63E9/))
      (tstamp 5AF019A9))
    (comp (ref C11)
      (value 4.7u/10V)
      (footprint Capacitor_SMD:C_0805_2012Metric)
      (libsource (lib Device) (part C_Small) (description "Unpolarized capacitor, small symbol"))
      (sheetpath (names /B_PSU/) (tstamps /5AEB63E9/))
      (tstamp 5AF027EC))
    (comp (ref C10)
      (value 100n)
      (footprint Capacitor_SMD:C_0603_1608Metric)
      (libsource (lib Device) (part C_Small) (description "Unpolarized capacitor, small symbol"))
      (sheetpath (names /B_PSU/) (tstamps /5AEB63E9/))
      (tstamp 5AF06221))
    (comp (ref R16)
      (value 330R)
      (footprint Resistor_SMD:R_0603_1608Metric)
      (libsource (lib Device) (part R_Small) (description "Resistor, small symbol"))
      (sheetpath (names /B_PSU/) (tstamps /5AEB63E9/))
      (tstamp 5AF069B5))
    (comp (ref R19)
      (value 2.2k)
      (footprint Resistor_SMD:R_0603_1608Metric)
      (libsource (lib Device) (part R_Small) (description "Resistor, small symbol"))
      (sheetpath (names /B_PSU/) (tstamps /5AEB63E9/))
      (tstamp 5AF09027))
    (comp (ref Q1)
      (value BSS138)
      (footprint Package_TO_SOT_SMD:SOT-23)
      (libsource (lib Transistor_FET) (part BSS138) (description "50V Vds, 0.22A Id, N-channel MOSFET, SOT-23"))
      (sheetpath (names /B_PSU/) (tstamps /5AEB63E9/))
      (tstamp 5AF0BC5B))
    (comp (ref Q2)
      (value BSS138)
      (footprint Package_TO_SOT_SMD:SOT-23)
      (libsource (lib Transistor_FET) (part BSS138) (description "50V Vds, 0.22A Id, N-channel MOSFET, SOT-23"))
      (sheetpath (names /B_PSU/) (tstamps /5AEB63E9/))
      (tstamp 5AF0C472))
    (comp (ref L1)
      (value 4.7u)
      (footprint Resistor_SMD:R_1210_3225Metric)
      (libsource (lib Device) (part L_Small) (description "Inductor, small symbol"))
      (sheetpath (names /B_PSU/) (tstamps /5AEB63E9/))
      (tstamp 5AF104B7))
    (comp (ref C15)
      (value 10u/6.3V)
      (footprint Capacitor_SMD:C_0805_2012Metric)
      (libsource (lib Device) (part C_Small) (description "Unpolarized capacitor, small symbol"))
      (sheetpath (names /B_PSU/) (tstamps /5AEB63E9/))
      (tstamp 5AF11088))
    (comp (ref C16)
      (value 10u/6.3V)
      (footprint Capacitor_SMD:C_0805_2012Metric)
      (libsource (lib Device) (part C_Small) (description "Unpolarized capacitor, small symbol"))
      (sheetpath (names /B_PSU/) (tstamps /5AEB63E9/))
      (tstamp 5AF111A0))
    (comp (ref C13)
      (value 4.7u/10V)
      (footprint Capacitor_SMD:C_0805_2012Metric)
      (libsource (lib Device) (part C_Small) (description "Unpolarized capacitor, small symbol"))
      (sheetpath (names /B_PSU/) (tstamps /5AEB63E9/))
      (tstamp 5AF1298D))
    (comp (ref C12)
      (value 4.7u/10V)
      (footprint Capacitor_SMD:C_0805_2012Metric)
      (libsource (lib Device) (part C_Small) (description "Unpolarized capacitor, small symbol"))
      (sheetpath (names /B_PSU/) (tstamps /5AEB63E9/))
      (tstamp 5AF12C0A))
    (comp (ref C14)
      (value 100n)
      (footprint Capacitor_SMD:C_0603_1608Metric)
      (libsource (lib Device) (part C_Small) (description "Unpolarized capacitor, small symbol"))
      (sheetpath (names /B_PSU/) (tstamps /5AEB63E9/))
      (tstamp 5AF14EAE))
    (comp (ref R22)
      (value 120k)
      (footprint Resistor_SMD:R_0603_1608Metric)
      (libsource (lib Device) (part R_Small) (description "Resistor, small symbol"))
      (sheetpath (names /B_PSU/) (tstamps /5AEB63E9/))
      (tstamp 5AF1663F))
    (comp (ref R21)
      (value 680k)
      (footprint Resistor_SMD:R_0603_1608Metric)
      (libsource (lib Device) (part R_Small) (description "Resistor, small symbol"))
      (sheetpath (names /B_PSU/) (tstamps /5AEB63E9/))
      (tstamp 5AF166AC))
    (comp (ref D2)
      (value 5.1V)
      (footprint Resistor_SMD:R_1210_3225Metric)
      (libsource (lib Device) (part D_Zener_Small_ALT) (description "Zener diode, small symbol, filled shape"))
      (sheetpath (names /B_PSU/) (tstamps /5AEB63E9/))
      (tstamp 5AEF8E28))
    (comp (ref C6)
      (value 4.7u/10V)
      (footprint Capacitor_SMD:C_0805_2012Metric)
      (libsource (lib Device) (part C_Small) (description "Unpolarized capacitor, small symbol"))
      (sheetpath (names /B_PSU/) (tstamps /5AEB63E9/))
      (tstamp 5AFCBBED)))
  (libparts
    (libpart (lib BeerBob-rescue) (part R_Small)
      (footprints
        (fp R_*))
      (fields
        (field (name Reference) R)
        (field (name Value) R_Small))
      (pins
        (pin (num 1) (name ~) (type passive))
        (pin (num 2) (name ~) (type passive))))
    (libpart (lib Connector) (part Conn_01x06_Male)
      (description "Generic connector, single row, 01x06, script generated (kicad-library-utils/schlib/autogen/connector/)")
      (docs ~)
      (footprints
        (fp Connector*:*_1x??_*))
      (fields
        (field (name Reference) J)
        (field (name Value) Conn_01x06_Male))
      (pins
        (pin (num 1) (name Pin_1) (type passive))
        (pin (num 2) (name Pin_2) (type passive))
        (pin (num 3) (name Pin_3) (type passive))
        (pin (num 4) (name Pin_4) (type passive))
        (pin (num 5) (name Pin_5) (type passive))
        (pin (num 6) (name Pin_6) (type passive))))
    (libpart (lib Connector) (part USB_B_Micro)
      (aliases
        (alias USB_B_Mini))
      (description "USB Micro Type B connector")
      (docs ~)
      (footprints
        (fp USB*))
      (fields
        (field (name Reference) J)
        (field (name Value) USB_B_Micro))
      (pins
        (pin (num 1) (name VBUS) (type power_out))
        (pin (num 2) (name D-) (type passive))
        (pin (num 3) (name D+) (type passive))
        (pin (num 4) (name ID) (type passive))
        (pin (num 5) (name GND) (type power_out))
        (pin (num 6) (name Shield) (type passive))))
    (libpart (lib Device) (part C_Small)
      (description "Unpolarized capacitor, small symbol")
      (docs ~)
      (footprints
        (fp C_*))
      (fields
        (field (name Reference) C)
        (field (name Value) C_Small))
      (pins
        (pin (num 1) (name ~) (type passive))
        (pin (num 2) (name ~) (type passive))))
    (libpart (lib Device) (part D_Zener_Small_ALT)
      (description "Zener diode, small symbol, filled shape")
      (docs ~)
      (footprints
        (fp TO-???*)
        (fp *_Diode_*)
        (fp *SingleDiode*)
        (fp D_*))
      (fields
        (field (name Reference) D)
        (field (name Value) D_Zener_Small_ALT))
      (pins
        (pin (num 1) (name K) (type passive))
        (pin (num 2) (name A) (type passive))))
    (libpart (lib Device) (part LED_Small)
      (description "Light emitting diode, small symbol")
      (docs ~)
      (footprints
        (fp LED*)
        (fp LED_SMD:*)
        (fp LED_THT:*))
      (fields
        (field (name Reference) D)
        (field (name Value) LED_Small))
      (pins
        (pin (num 1) (name K) (type passive))
        (pin (num 2) (name A) (type passive))))
    (libpart (lib Device) (part LED_Small_ALT)
      (description "Light emitting diode, small symbol, filled shape")
      (docs ~)
      (footprints
        (fp LED*)
        (fp LED_SMD:*)
        (fp LED_THT:*))
      (fields
        (field (name Reference) D)
        (field (name Value) LED_Small_ALT))
      (pins
        (pin (num 1) (name K) (type passive))
        (pin (num 2) (name A) (type passive))))
    (libpart (lib Device) (part L_Small)
      (description "Inductor, small symbol")
      (docs ~)
      (footprints
        (fp Choke_*)
        (fp *Coil*)
        (fp Inductor_*)
        (fp L_*))
      (fields
        (field (name Reference) L)
        (field (name Value) L_Small))
      (pins
        (pin (num 1) (name ~) (type passive))
        (pin (num 2) (name ~) (type passive))))
    (libpart (lib Device) (part R_Small)
      (description "Resistor, small symbol")
      (docs ~)
      (footprints
        (fp R_*))
      (fields
        (field (name Reference) R)
        (field (name Value) R_Small))
      (pins
        (pin (num 1) (name ~) (type passive))
        (pin (num 2) (name ~) (type passive))))
    (libpart (lib Switch) (part SW_Push)
      (description "Push button switch, generic, two pins")
      (fields
        (field (name Reference) SW)
        (field (name Value) SW_Push))
      (pins
        (pin (num 1) (name 1) (type passive))
        (pin (num 2) (name 2) (type passive))))
    (libpart (lib Transistor_FET) (part BSS138)
      (aliases
        (alias 2N7002)
        (alias MMBF170))
      (description "50V Vds, 0.22A Id, N-channel MOSFET, SOT-23")
      (docs https://www.fairchildsemi.com/datasheets/BS/BSS138.pdf)
      (footprints
        (fp SOT?23*))
      (fields
        (field (name Reference) Q)
        (field (name Value) BSS138)
        (field (name Footprint) Package_TO_SOT_SMD:SOT-23))
      (pins
        (pin (num 1) (name G) (type input))
        (pin (num 2) (name S) (type passive))
        (pin (num 3) (name D) (type passive))))
    (libpart (lib beerbob) (part 223A)
      (description "Contact; Size: AAA, R03; Mounting: soldered; Batt.no:1")
      (docs https://www.tme.eu/gb/Document/fb95b59fbd01ed654993837a4168d7a9/BatteryContact.pdf)
      (footprints
        (fp BAT_CON))
      (fields
        (field (name Reference) J)
        (field (name Value) 223A))
      (pins
        (pin (num 1) (name PAD) (type power_in))))
    (libpart (lib beerbob) (part 223B)
      (description "Contact; Size: AAA, R03; Mounting: soldered; Batt.no:1")
      (docs https://www.tme.eu/gb/Document/fb95b59fbd01ed654993837a4168d7a9/BatteryContact.pdf)
      (footprints
        (fp BAT_CON))
      (fields
        (field (name Reference) J)
        (field (name Value) 223B))
      (pins
        (pin (num 1) (name PAD) (type power_in))))
    (libpart (lib beerbob) (part BQ2971)
      (description "bq297xx Cost-Effective Voltage and Current Protection Integrated Circuit for Single-Cell Li-Ion and Li-Polymer Batteries")
      (docs http://www.ti.com/lit/ds/symlink/bq2971.pdf)
      (footprints
        (fp TEXAS_S_PDSO_N6_1.5x1.5_BB))
      (fields
        (field (name Reference) U)
        (field (name Value) BQ2971))
      (pins
        (pin (num 1) (name NC) (type NotConnected))
        (pin (num 2) (name COUT) (type output))
        (pin (num 3) (name DOUT) (type output))
        (pin (num 4) (name VSS) (type power_in))
        (pin (num 5) (name BAT) (type power_in))
        (pin (num 6) (name V-) (type power_in))))
    (libpart (lib beerbob) (part ESP32-WROOM-32)
      (docs https://www.espressif.com/sites/default/files/documentation/esp32-wroom-32_datasheet_en.pdf)
      (footprints
        (fp esp32-wroom-32))
      (fields
        (field (name Reference) U)
        (field (name Value) ESP32-WROOM-32))
      (pins
        (pin (num 1) (name GND) (type power_in))
        (pin (num 2) (name 3V3) (type power_in))
        (pin (num 3) (name EN) (type input))
        (pin (num 4) (name SENSOR_VP) (type power_in))
        (pin (num 5) (name SENSOR_VN) (type power_in))
        (pin (num 6) (name IO34) (type BiDi))
        (pin (num 7) (name IO35) (type BiDi))
        (pin (num 8) (name IO32) (type BiDi))
        (pin (num 9) (name IO33) (type BiDi))
        (pin (num 10) (name IO25) (type BiDi))
        (pin (num 11) (name IO26) (type BiDi))
        (pin (num 12) (name IO27) (type BiDi))
        (pin (num 13) (name IO14) (type BiDi))
        (pin (num 14) (name IO12) (type BiDi))
        (pin (num 15) (name GND) (type power_in))
        (pin (num 16) (name IO13) (type BiDi))
        (pin (num 17) (name SHD/SD2) (type BiDi))
        (pin (num 18) (name SWP/SD3) (type BiDi))
        (pin (num 19) (name SCS/CMD) (type BiDi))
        (pin (num 20) (name SCK/CLK) (type BiDi))
        (pin (num 21) (name SDO/SD0) (type BiDi))
        (pin (num 22) (name SDI/SD1) (type BiDi))
        (pin (num 23) (name IO15) (type BiDi))
        (pin (num 24) (name IO2) (type BiDi))
        (pin (num 25) (name IO0) (type BiDi))
        (pin (num 26) (name IO4) (type BiDi))
        (pin (num 27) (name IO16) (type BiDi))
        (pin (num 28) (name IO17) (type BiDi))
        (pin (num 29) (name IO5) (type BiDi))
        (pin (num 30) (name IO18) (type BiDi))
        (pin (num 31) (name IO19) (type BiDi))
        (pin (num 32) (name NC) (type NotConnected))
        (pin (num 33) (name IO21) (type BiDi))
        (pin (num 34) (name RXD0) (type BiDi))
        (pin (num 35) (name TXD0) (type BiDi))
        (pin (num 36) (name IO22) (type BiDi))
        (pin (num 37) (name IO23) (type BiDi))
        (pin (num 38) (name GND) (type power_in))
        (pin (num 39) (name GND) (type power_in))))
    (libpart (lib beerbob) (part MCP73831)
      (description "Miniature Single-Cell, Fully Integrated Li-Ion, Li-Polymer Charge Management Controllers")
      (docs http://ww1.microchip.com/downloads/en/DeviceDoc/20001984g.pdf)
      (footprints
        (fp SOT-23-5))
      (fields
        (field (name Reference) U)
        (field (name Value) MCP73831))
      (pins
        (pin (num 1) (name STAT) (type input))
        (pin (num 2) (name VSS) (type power_in))
        (pin (num 3) (name VBAT) (type power_out))
        (pin (num 4) (name VDD) (type power_in))
        (pin (num 5) (name PROG) (type input))))
    (libpart (lib beerbob) (part MMA8452QT)
      (description "3-axis, 12-bit/8-bit digital accelerometer")
      (docs https://www.nxp.com/docs/en/data-sheet/MMA8452Q.pdf)
      (footprints
        (fp NXP_QFN*16*3x3*0.5mm*))
      (fields
        (field (name Reference) U)
        (field (name Value) MMA8452QT))
      (pins
        (pin (num 1) (name VDDIO) (type power_in))
        (pin (num 2) (name BYP) (type power_out))
        (pin (num 3) (name DNC) (type NotConnected))
        (pin (num 4) (name SCL) (type input))
        (pin (num 5) (name GND) (type power_in))
        (pin (num 6) (name SDA) (type BiDi))
        (pin (num 7) (name SA0) (type input))
        (pin (num 8) (name NC) (type NotConnected))
        (pin (num 9) (name INT2) (type output))
        (pin (num 10) (name GND) (type power_in))
        (pin (num 11) (name INT1) (type output))
        (pin (num 12) (name GND) (type power_in))
        (pin (num 13) (name NC) (type NotConnected))
        (pin (num 14) (name VDD) (type power_in))
        (pin (num 15) (name NC) (type NotConnected))
        (pin (num 16) (name NC) (type NotConnected))))
    (libpart (lib beerbob) (part SHT21D)
      (description "Humidity and Temperature Sensor IC")
      (docs https://www.tme.eu/en/Document/db173571d8a0c8f3382d091efbda8ad5/SHT21.pdf)
      (footprints
        (fp TI_PWSON_6_3x3))
      (fields
        (field (name Reference) U)
        (field (name Value) SHT21D))
      (pins
        (pin (num 1) (name SDA) (type BiDi))
        (pin (num 2) (name GND) (type power_in))
        (pin (num 3) (name NC) (type openCol))
        (pin (num 4) (name NC) (type input))
        (pin (num 5) (name VDD) (type power_in))
        (pin (num 6) (name SCL) (type BiDi))
        (pin (num 7) (name NC) (type passive))))
    (libpart (lib beerbob) (part TMP116)
      (description "TMP116x High-Accuracy, Low-Power, Digital Temperature Sensor")
      (docs http://www.ti.com/lit/ds/symlink/tmp116.pdf)
      (footprints
        (fp TI_WSON_6P_2x2))
      (fields
        (field (name Reference) U)
        (field (name Value) TMP116))
      (pins
        (pin (num 1) (name SCL) (type BiDi))
        (pin (num 2) (name GND) (type power_in))
        (pin (num 3) (name ALERT) (type openCol))
        (pin (num 4) (name ADD0) (type input))
        (pin (num 5) (name V+) (type power_in))
        (pin (num 6) (name SDA) (type BiDi))
        (pin (num 7) (name PAD) (type passive))))
    (libpart (lib beerbob) (part TPS6303x)
      (description "TPS6303x High Efficiency Single Inductor Buck-Boost Converter With 1-A Switches")
      (docs http://www.ti.com/lit/ds/symlink/tps63030.pdf)
      (footprints
        (fp Texas_S-PWSON-N10_BB))
      (fields
        (field (name Reference) U)
        (field (name Value) TPS6303x))
      (pins
        (pin (num 1) (name VOUT) (type power_out))
        (pin (num 2) (name L2) (type input))
        (pin (num 3) (name PGND) (type power_in))
        (pin (num 4) (name L1) (type input))
        (pin (num 5) (name VIN) (type power_in))
        (pin (num 6) (name EN) (type input))
        (pin (num 7) (name PS/SYNC) (type input))
        (pin (num 8) (name VINA) (type input))
        (pin (num 9) (name GND) (type power_in))
        (pin (num 10) (name FB) (type input))
        (pin (num 11) (name PGND) (type power_in)))))
  (libraries
    (library (logical BeerBob-rescue)
      (uri /home/apralat/Documents/BeerBob_HW/BeerBob-rescue.lib))
    (library (logical Connector)
      (uri /home/apralat/Documents/kicad/kicad-symbols/Connector.lib))
    (library (logical Device)
      (uri /home/apralat/Documents/kicad/kicad-symbols/Device.lib))
    (library (logical Switch)
      (uri /home/apralat/Documents/kicad/kicad-symbols/Switch.lib))
    (library (logical Transistor_FET)
      (uri /home/apralat/Documents/kicad/kicad-symbols/Transistor_FET.lib))
    (library (logical beerbob)
      (uri /home/apralat/Documents/BeerBob_HW/libraries/beerbob_symbols/beerbob.lib)))
  (nets
    (net (code 1) (name GND)
      (node (ref C9) (pin 2))
      (node (ref R23) (pin 1))
      (node (ref U4) (pin 2))
      (node (ref J4) (pin 6))
      (node (ref Q2) (pin 2))
      (node (ref C14) (pin 2))
      (node (ref C13) (pin 2))
      (node (ref C12) (pin 2))
      (node (ref R1) (pin 1))
      (node (ref C5) (pin 2))
      (node (ref U3) (pin 10))
      (node (ref U3) (pin 7))
      (node (ref U3) (pin 12))
      (node (ref C2) (pin 2))
      (node (ref U1) (pin 2))
      (node (ref U1) (pin 7))
      (node (ref C8) (pin 2))
      (node (ref SW1) (pin 2))
      (node (ref D3) (pin 1))
      (node (ref U3) (pin 5))
      (node (ref C3) (pin 2))
      (node (ref R20) (pin 2))
      (node (ref U8) (pin 9))
      (node (ref R19) (pin 1))
      (node (ref R15) (pin 2))
      (node (ref J1) (pin 6))
      (node (ref J1) (pin 5))
      (node (ref U2) (pin 15))
      (node (ref C11) (pin 2))
      (node (ref U7) (pin 2))
      (node (ref R22) (pin 2))
      (node (ref C6) (pin 2))
      (node (ref C16) (pin 2))
      (node (ref C15) (pin 2))
      (node (ref C1) (pin 2))
      (node (ref U8) (pin 3))
      (node (ref U8) (pin 11))
      (node (ref U2) (pin 1))
      (node (ref U2) (pin 39))
      (node (ref U2) (pin 38))
      (node (ref D2) (pin 2)))
    (net (code 2) (name "Net-(U2-Pad9)")
      (node (ref U2) (pin 9)))
    (net (code 3) (name "Net-(U2-Pad8)")
      (node (ref U2) (pin 8)))
    (net (code 4) (name "Net-(U2-Pad7)")
      (node (ref U2) (pin 7)))
    (net (code 5) (name "Net-(U2-Pad6)")
      (node (ref U2) (pin 6)))
    (net (code 6) (name "Net-(U2-Pad5)")
      (node (ref U2) (pin 5)))
    (net (code 7) (name /ESP_RX)
      (node (ref J4) (pin 2))
      (node (ref U2) (pin 34)))
    (net (code 8) (name /ESP_TX)
      (node (ref J4) (pin 1))
      (node (ref U2) (pin 35)))
    (net (code 9) (name "Net-(U2-Pad12)")
      (node (ref U2) (pin 12)))
    (net (code 10) (name "Net-(U2-Pad21)")
      (node (ref U2) (pin 21)))
    (net (code 11) (name "Net-(U2-Pad20)")
      (node (ref U2) (pin 20)))
    (net (code 12) (name "Net-(U2-Pad19)")
      (node (ref U2) (pin 19)))
    (net (code 13) (name "Net-(U2-Pad18)")
      (node (ref U2) (pin 18)))
    (net (code 14) (name "Net-(U2-Pad17)")
      (node (ref U2) (pin 17)))
    (net (code 15) (name "Net-(U2-Pad16)")
      (node (ref U2) (pin 16)))
    (net (code 16) (name "Net-(U2-Pad14)")
      (node (ref U2) (pin 14)))
    (net (code 17) (name "Net-(U2-Pad13)")
      (node (ref U2) (pin 13)))
    (net (code 18) (name "Net-(U2-Pad22)")
      (node (ref U2) (pin 22)))
    (net (code 19) (name "Net-(U2-Pad11)")
      (node (ref U2) (pin 11)))
    (net (code 20) (name "Net-(U2-Pad31)")
      (node (ref U2) (pin 31)))
    (net (code 21) (name "Net-(U2-Pad4)")
      (node (ref U2) (pin 4)))
    (net (code 22) (name "Net-(U2-Pad33)")
      (node (ref U2) (pin 33)))
    (net (code 23) (name "Net-(U2-Pad32)")
      (node (ref U2) (pin 32)))
    (net (code 24) (name "Net-(U2-Pad30)")
      (node (ref U2) (pin 30)))
    (net (code 25) (name "Net-(U2-Pad29)")
      (node (ref U2) (pin 29)))
    (net (code 26) (name "Net-(U2-Pad28)")
      (node (ref U2) (pin 28)))
    (net (code 27) (name /ESP_BOOT_SDA)
      (node (ref R6) (pin 2))
      (node (ref J4) (pin 3))
      (node (ref U2) (pin 25))
      (node (ref R9) (pin 2)))
    (net (code 28) (name /SDA)
      (node (ref U3) (pin 6))
      (node (ref U4) (pin 1))
      (node (ref R9) (pin 1))
      (node (ref U1) (pin 6))
      (node (ref R7) (pin 1))
      (node (ref R10) (pin 1)))
    (net (code 29) (name /SCL)
      (node (ref R8) (pin 1))
      (node (ref R18) (pin 1))
      (node (ref U4) (pin 6))
      (node (ref U1) (pin 1))
      (node (ref R11) (pin 1))
      (node (ref U3) (pin 4)))
    (net (code 30) (name "Net-(R7-Pad2)")
      (node (ref U2) (pin 23))
      (node (ref R7) (pin 2)))
    (net (code 31) (name "Net-(R8-Pad2)")
      (node (ref R8) (pin 2))
      (node (ref U2) (pin 24)))
    (net (code 32) (name /LED)
      (node (ref U2) (pin 36))
      (node (ref R5) (pin 2)))
    (net (code 33) (name /ESP_SCL)
      (node (ref U2) (pin 26))
      (node (ref R18) (pin 2)))
    (net (code 34) (name "Net-(D3-Pad2)")
      (node (ref D3) (pin 2))
      (node (ref R5) (pin 1)))
    (net (code 35) (name /BUTTON)
      (node (ref U2) (pin 37))
      (node (ref SW1) (pin 1))
      (node (ref R3) (pin 2)))
    (net (code 36) (name "Net-(R1-Pad2)")
      (node (ref U1) (pin 4))
      (node (ref R1) (pin 2)))
    (net (code 37) (name +3V3)
      (node (ref U8) (pin 1))
      (node (ref R6) (pin 1))
      (node (ref U2) (pin 2))
      (node (ref R2) (pin 1))
      (node (ref C16) (pin 1))
      (node (ref R21) (pin 1))
      (node (ref C15) (pin 1))
      (node (ref C2) (pin 1))
      (node (ref R11) (pin 2))
      (node (ref R10) (pin 2))
      (node (ref C9) (pin 1))
      (node (ref U4) (pin 5))
      (node (ref J4) (pin 5))
      (node (ref U3) (pin 1))
      (node (ref R4) (pin 2))
      (node (ref R3) (pin 1))
      (node (ref U3) (pin 14))
      (node (ref C8) (pin 1))
      (node (ref U1) (pin 5)))
    (net (code 38) (name /ESP_RST)
      (node (ref J4) (pin 4))
      (node (ref C3) (pin 1))
      (node (ref U2) (pin 3))
      (node (ref R2) (pin 2)))
    (net (code 39) (name /TEMP_ALERT)
      (node (ref R4) (pin 1))
      (node (ref U2) (pin 27))
      (node (ref U1) (pin 3)))
    (net (code 40) (name "Net-(C5-Pad1)")
      (node (ref U3) (pin 2))
      (node (ref C5) (pin 1)))
    (net (code 41) (name "Net-(U3-Pad13)")
      (node (ref U3) (pin 13)))
    (net (code 42) (name "Net-(U3-Pad11)")
      (node (ref U3) (pin 11)))
    (net (code 43) (name /VBAT_SENS)
      (node (ref U2) (pin 10))
      (node (ref R14) (pin 2))
      (node (ref R15) (pin 1)))
    (net (code 44) (name "Net-(R23-Pad2)")
      (node (ref R23) (pin 2))
      (node (ref U4) (pin 7)))
    (net (code 45) (name "Net-(U3-Pad9)")
      (node (ref U3) (pin 9)))
    (net (code 46) (name "Net-(U3-Pad8)")
      (node (ref U3) (pin 8)))
    (net (code 47) (name "Net-(U3-Pad3)")
      (node (ref U3) (pin 3)))
    (net (code 48) (name "Net-(U3-Pad16)")
      (node (ref U3) (pin 16)))
    (net (code 49) (name "Net-(U3-Pad15)")
      (node (ref U3) (pin 15)))
    (net (code 50) (name "Net-(U4-Pad3)")
      (node (ref U4) (pin 3)))
    (net (code 51) (name "Net-(U4-Pad4)")
      (node (ref U4) (pin 4)))
    (net (code 52) (name VDD)
      (node (ref J2) (pin 1))
      (node (ref C12) (pin 1))
      (node (ref C11) (pin 1))
      (node (ref U7) (pin 3))
      (node (ref R16) (pin 1))
      (node (ref R14) (pin 1))
      (node (ref U8) (pin 5))
      (node (ref C13) (pin 1)))
    (net (code 53) (name "Net-(C14-Pad1)")
      (node (ref U8) (pin 6))
      (node (ref U8) (pin 7))
      (node (ref U8) (pin 8))
      (node (ref C14) (pin 1)))
    (net (code 54) (name "Net-(Q1-Pad3)")
      (node (ref Q2) (pin 3))
      (node (ref Q1) (pin 3)))
    (net (code 55) (name "Net-(Q1-Pad1)")
      (node (ref Q1) (pin 1))
      (node (ref U6) (pin 3)))
    (net (code 56) (name "Net-(Q2-Pad1)")
      (node (ref Q2) (pin 1))
      (node (ref U6) (pin 2)))
    (net (code 57) (name "Net-(L1-Pad2)")
      (node (ref L1) (pin 2))
      (node (ref U8) (pin 2)))
    (net (code 58) (name "Net-(L1-Pad1)")
      (node (ref L1) (pin 1))
      (node (ref U8) (pin 4)))
    (net (code 59) (name +5V)
      (node (ref J1) (pin 1))
      (node (ref U7) (pin 4))
      (node (ref D2) (pin 1))
      (node (ref D1) (pin 2))
      (node (ref C1) (pin 1))
      (node (ref C6) (pin 1)))
    (net (code 60) (name "Net-(R17-Pad2)")
      (node (ref U7) (pin 1))
      (node (ref R17) (pin 2)))
    (net (code 61) (name "Net-(R21-Pad2)")
      (node (ref U8) (pin 10))
      (node (ref R21) (pin 2))
      (node (ref R22) (pin 1)))
    (net (code 62) (name "Net-(U6-Pad1)")
      (node (ref U6) (pin 1)))
    (net (code 63) (name "Net-(R19-Pad2)")
      (node (ref U6) (pin 6))
      (node (ref R19) (pin 2)))
    (net (code 64) (name "Net-(J1-Pad2)")
      (node (ref J1) (pin 2)))
    (net (code 65) (name "Net-(J1-Pad3)")
      (node (ref J1) (pin 3)))
    (net (code 66) (name "Net-(J1-Pad4)")
      (node (ref J1) (pin 4)))
    (net (code 67) (name "Net-(C10-Pad2)")
      (node (ref U6) (pin 4))
      (node (ref Q1) (pin 2))
      (node (ref J3) (pin 1))
      (node (ref C10) (pin 2)))
    (net (code 68) (name "Net-(C10-Pad1)")
      (node (ref U6) (pin 5))
      (node (ref C10) (pin 1))
      (node (ref R16) (pin 2)))
    (net (code 69) (name "Net-(R20-Pad1)")
      (node (ref R20) (pin 1))
      (node (ref U7) (pin 5)))
    (net (code 70) (name "Net-(D1-Pad1)")
      (node (ref D1) (pin 1))
      (node (ref R17) (pin 1)))))