EESchema Schematic File Version 4
LIBS:BeerBob-cache
EELAYER 26 0
EELAYER END
$Descr A4 11693 8268
encoding utf-8
Sheet 2 2
Title "BeerBob"
Date ""
Rev "1.1"
Comp "Open Brewery"
Comment1 "https://gitlab.com/OpenBrewery/BeerBob_HW"
Comment2 "Licensed under GPLv2"
Comment3 "and data aggregation project"
Comment4 "Beer Bob - Fermentation measurement"
$EndDescr
$Comp
L power:+5V #PWR027
U 1 1 5AEB8645
P 1700 900
AR Path="/5AEB8645" Ref="#PWR027"  Part="1" 
AR Path="/5AEB63E9/5AEB8645" Ref="#PWR027"  Part="1" 
F 0 "#PWR027" H 1700 750 50  0001 C CNN
F 1 "+5V" H 1700 1040 50  0000 C CNN
F 2 "" H 1700 900 50  0001 C CNN
F 3 "" H 1700 900 50  0001 C CNN
	1    1700 900 
	1    0    0    -1  
$EndComp
Wire Wire Line
	1400 1100 1700 1100
Wire Wire Line
	1700 900  1700 1100
Wire Wire Line
	1100 1700 1100 1800
Wire Wire Line
	1100 1800 1000 1800
Wire Wire Line
	1000 1800 1000 1700
Connection ~ 1100 1800
$Comp
L Connector:USB_B_Micro J1
U 1 1 5AEB8657
P 1100 1300
AR Path="/5AEB8657" Ref="J1"  Part="1" 
AR Path="/5AEB63E9/5AEB8657" Ref="J1"  Part="1" 
F 0 "J1" H 900 1750 50  0000 L CNN
F 1 "USB_B_Micro" H 900 1650 50  0000 L CNN
F 2 "Connector_USB:USB_Micro-B_Molex_47346-0001" H 1250 1250 50  0001 C CNN
F 3 "" H 1250 1250 50  0001 C CNN
	1    1100 1300
	1    0    0    -1  
$EndComp
$Comp
L Device:C_Small C1
U 1 1 5AEB865E
P 1700 1300
F 0 "C1" H 1710 1370 50  0000 L CNN
F 1 "100n" H 1710 1220 50  0000 L CNN
F 2 "Capacitor_SMD:C_0603_1608Metric" H 1700 1300 50  0001 C CNN
F 3 "" H 1700 1300 50  0001 C CNN
	1    1700 1300
	1    0    0    -1  
$EndComp
Text HLabel 6800 1900 2    59   Output ~ 0
VBAT_SENS
$Comp
L power:GND #PWR028
U 1 1 5AEBEEB8
P 6200 2600
F 0 "#PWR028" H 6200 2350 50  0001 C CNN
F 1 "GND" H 6200 2450 50  0000 C CNN
F 2 "" H 6200 2600 50  0001 C CNN
F 3 "" H 6200 2600 50  0001 C CNN
	1    6200 2600
	1    0    0    -1  
$EndComp
$Comp
L Device:R_Small R15
U 1 1 5AEF8208
P 6200 2400
F 0 "R15" H 6230 2420 50  0000 L CNN
F 1 "820k" H 6230 2360 50  0000 L CNN
F 2 "Resistor_SMD:R_0603_1608Metric" H 6200 2400 50  0001 C CNN
F 3 "" H 6200 2400 50  0001 C CNN
	1    6200 2400
	1    0    0    -1  
$EndComp
$Comp
L Device:R_Small R14
U 1 1 5AEF8229
P 6200 1400
F 0 "R14" H 6230 1420 50  0000 L CNN
F 1 "120k" H 6230 1360 50  0000 L CNN
F 2 "Resistor_SMD:R_0603_1608Metric" H 6200 1400 50  0001 C CNN
F 3 "" H 6200 1400 50  0001 C CNN
	1    6200 1400
	1    0    0    -1  
$EndComp
Wire Wire Line
	6200 2600 6200 2500
Wire Wire Line
	6200 1300 6200 1200
Wire Wire Line
	6800 1900 6200 1900
Connection ~ 6200 1900
$Comp
L power:VDD #PWR029
U 1 1 5AEFE415
P 6200 1200
AR Path="/5AEFE415" Ref="#PWR029"  Part="1" 
AR Path="/5AEB63E9/5AEFE415" Ref="#PWR029"  Part="1" 
F 0 "#PWR029" H 6200 1050 50  0001 C CNN
F 1 "VDD" H 6200 1350 50  0000 C CNN
F 2 "" H 6200 1200 50  0001 C CNN
F 3 "" H 6200 1200 50  0001 C CNN
	1    6200 1200
	1    0    0    -1  
$EndComp
$Comp
L power:VDD #PWR030
U 1 1 5AEFE5A6
P 1700 3400
AR Path="/5AEFE5A6" Ref="#PWR030"  Part="1" 
AR Path="/5AEB63E9/5AEFE5A6" Ref="#PWR030"  Part="1" 
F 0 "#PWR030" H 1700 3250 50  0001 C CNN
F 1 "VDD" H 1700 3550 50  0000 C CNN
F 2 "" H 1700 3400 50  0001 C CNN
F 3 "" H 1700 3400 50  0001 C CNN
	1    1700 3400
	1    0    0    -1  
$EndComp
$Comp
L power:+3.3V #PWR031
U 1 1 5AF0013F
P 10200 3500
AR Path="/5AF0013F" Ref="#PWR031"  Part="1" 
AR Path="/5AEB63E9/5AF0013F" Ref="#PWR031"  Part="1" 
F 0 "#PWR031" H 10200 3350 50  0001 C CNN
F 1 "+3.3V" H 10200 3640 50  0000 C CNN
F 2 "" H 10200 3500 50  0001 C CNN
F 3 "" H 10200 3500 50  0001 C CNN
	1    10200 3500
	1    0    0    -1  
$EndComp
$Comp
L power:VDD #PWR032
U 1 1 5AF00308
P 5800 3700
AR Path="/5AF00308" Ref="#PWR032"  Part="1" 
AR Path="/5AEB63E9/5AF00308" Ref="#PWR032"  Part="1" 
F 0 "#PWR032" H 5800 3550 50  0001 C CNN
F 1 "VDD" H 5800 3850 50  0000 C CNN
F 2 "" H 5800 3700 50  0001 C CNN
F 3 "" H 5800 3700 50  0001 C CNN
	1    5800 3700
	1    0    0    -1  
$EndComp
$Comp
L power:VDD #PWR033
U 1 1 5AF004FF
P 4800 1300
AR Path="/5AF004FF" Ref="#PWR033"  Part="1" 
AR Path="/5AEB63E9/5AF004FF" Ref="#PWR033"  Part="1" 
F 0 "#PWR033" H 4800 1150 50  0001 C CNN
F 1 "VDD" H 4800 1450 50  0000 C CNN
F 2 "" H 4800 1300 50  0001 C CNN
F 3 "" H 4800 1300 50  0001 C CNN
	1    4800 1300
	1    0    0    -1  
$EndComp
$Comp
L beerbob:223A J2
U 1 1 5AEFD58D
P 1300 3300
AR Path="/5AEFD58D" Ref="J2"  Part="1" 
AR Path="/5AEB63E9/5AEFD58D" Ref="J2"  Part="1" 
F 0 "J2" H 1350 3450 50  0000 C CNN
F 1 "223A" H 1450 3150 50  0000 C CNN
F 2 "beerbob_footprints:BAT_CON" H 600 2300 60  0001 C CNN
F 3 "" H 600 2300 60  0001 C CNN
	1    1300 3300
	0    -1   -1   0   
$EndComp
$Comp
L beerbob:223B J3
U 1 1 5AEFD5D5
P 1300 5400
AR Path="/5AEFD5D5" Ref="J3"  Part="1" 
AR Path="/5AEB63E9/5AEFD5D5" Ref="J3"  Part="1" 
F 0 "J3" H 1350 5550 50  0000 C CNN
F 1 "223B" H 1450 5250 50  0000 C CNN
F 2 "beerbob_footprints:BAT_CON" H 600 4400 60  0001 C CNN
F 3 "" H 600 4400 60  0001 C CNN
	1    1300 5400
	0    1    1    0   
$EndComp
$Comp
L beerbob:BQ2971 U6
U 1 1 5AEFD630
P 2600 4100
F 0 "U6" H 2350 4350 50  0000 C CNN
F 1 "BQ2971" H 2750 3850 50  0000 C CNN
F 2 "beerbob_footprints:TEXAS_S_PDSO_N6_1.5x1.5_BB" H 1800 3100 60  0001 C CNN
F 3 "" H 1800 3100 60  0001 C CNN
	1    2600 4100
	1    0    0    -1  
$EndComp
$Comp
L power:GND #PWR034
U 1 1 5AEFD8BB
P 1100 1900
F 0 "#PWR034" H 1100 1650 50  0001 C CNN
F 1 "GND" H 1100 1750 50  0000 C CNN
F 2 "" H 1100 1900 50  0001 C CNN
F 3 "" H 1100 1900 50  0001 C CNN
	1    1100 1900
	1    0    0    -1  
$EndComp
$Comp
L power:GND #PWR035
U 1 1 5AEFD8E4
P 1700 1600
F 0 "#PWR035" H 1700 1350 50  0001 C CNN
F 1 "GND" H 1700 1450 50  0000 C CNN
F 2 "" H 1700 1600 50  0001 C CNN
F 3 "" H 1700 1600 50  0001 C CNN
	1    1700 1600
	1    0    0    -1  
$EndComp
Wire Wire Line
	4700 1400 4800 1400
Wire Wire Line
	4800 1400 4800 1300
$Comp
L power:+5V #PWR036
U 1 1 5AEFDCFB
P 3300 1000
AR Path="/5AEFDCFB" Ref="#PWR036"  Part="1" 
AR Path="/5AEB63E9/5AEFDCFB" Ref="#PWR036"  Part="1" 
F 0 "#PWR036" H 3300 850 50  0001 C CNN
F 1 "+5V" H 3300 1140 50  0000 C CNN
F 2 "" H 3300 1000 50  0001 C CNN
F 3 "" H 3300 1000 50  0001 C CNN
	1    3300 1000
	1    0    0    -1  
$EndComp
Wire Wire Line
	1700 1600 1700 1400
Connection ~ 1700 1100
$Comp
L beerbob:TPS6303x U8
U 1 1 5AEFE5CE
P 8100 3900
F 0 "U8" H 7750 4250 50  0000 C CNN
F 1 "TPS6303x" H 8300 3450 50  0000 C CNN
F 2 "beerbob_footprints:Texas_S-PWSON-N10_BB" H 7300 2900 60  0001 C CNN
F 3 "" H 7300 2900 60  0001 C CNN
	1    8100 3900
	1    0    0    -1  
$EndComp
$Comp
L Device:R_Small R20
U 1 1 5AEFFC19
P 5000 1800
F 0 "R20" H 5030 1820 50  0000 L CNN
F 1 "12k" H 5030 1760 50  0000 L CNN
F 2 "Resistor_SMD:R_0603_1608Metric" H 5000 1800 50  0001 C CNN
F 3 "" H 5000 1800 50  0001 C CNN
	1    5000 1800
	1    0    0    -1  
$EndComp
$Comp
L beerbob:MCP73831 U7
U 1 1 5AF00CEA
P 4200 1600
F 0 "U7" H 4000 1950 50  0000 C CNN
F 1 "MCP73831" H 4300 1250 50  0000 C CNN
F 2 "Package_TO_SOT_SMD:SOT-23-5" H 3500 600 60  0001 C CNN
F 3 "" H 3500 600 60  0001 C CNN
	1    4200 1600
	1    0    0    -1  
$EndComp
$Comp
L power:GND #PWR037
U 1 1 5AF00F96
P 5000 2100
F 0 "#PWR037" H 5000 1850 50  0001 C CNN
F 1 "GND" H 5000 1950 50  0000 C CNN
F 2 "" H 5000 2100 50  0001 C CNN
F 3 "" H 5000 2100 50  0001 C CNN
	1    5000 2100
	1    0    0    -1  
$EndComp
Wire Wire Line
	5000 1900 5000 2000
Wire Wire Line
	5000 2000 4800 2000
Wire Wire Line
	4800 2000 4800 1800
Wire Wire Line
	4800 1800 4700 1800
Connection ~ 5000 2000
Wire Wire Line
	4700 1600 5000 1600
Wire Wire Line
	5000 1600 5000 1700
$Comp
L Device:LED_Small D1
U 1 1 5AF018D0
P 3300 1300
F 0 "D1" H 3250 1425 50  0000 L CNN
F 1 "LED_RED" H 3125 1200 50  0000 L CNN
F 2 "LED_SMD:LED_0603_1608Metric" V 3300 1300 50  0001 C CNN
F 3 "" V 3300 1300 50  0001 C CNN
	1    3300 1300
	0    -1   -1   0   
$EndComp
Wire Wire Line
	3600 1100 3600 1400
Wire Wire Line
	3600 1400 3700 1400
$Comp
L Device:R_Small R17
U 1 1 5AF019A9
P 3300 1600
F 0 "R17" H 3330 1620 50  0000 L CNN
F 1 "330R" H 3330 1560 50  0000 L CNN
F 2 "Resistor_SMD:R_0603_1608Metric" H 3300 1600 50  0001 C CNN
F 3 "" H 3300 1600 50  0001 C CNN
	1    3300 1600
	1    0    0    -1  
$EndComp
Wire Wire Line
	3600 1100 3300 1100
Wire Wire Line
	3300 1000 3300 1100
Connection ~ 3300 1100
Wire Wire Line
	3300 1400 3300 1500
$Comp
L Device:C_Small C11
U 1 1 5AF027EC
P 5500 1700
F 0 "C11" H 5510 1770 50  0000 L CNN
F 1 "4.7u/10V" H 5510 1620 50  0000 L CNN
F 2 "Capacitor_SMD:C_0805_2012Metric" H 5500 1700 50  0001 C CNN
F 3 "" H 5500 1700 50  0001 C CNN
	1    5500 1700
	1    0    0    -1  
$EndComp
$Comp
L power:VDD #PWR038
U 1 1 5AF043E7
P 5500 1500
AR Path="/5AF043E7" Ref="#PWR038"  Part="1" 
AR Path="/5AEB63E9/5AF043E7" Ref="#PWR038"  Part="1" 
F 0 "#PWR038" H 5500 1350 50  0001 C CNN
F 1 "VDD" H 5500 1650 50  0000 C CNN
F 2 "" H 5500 1500 50  0001 C CNN
F 3 "" H 5500 1500 50  0001 C CNN
	1    5500 1500
	1    0    0    -1  
$EndComp
$Comp
L power:GND #PWR039
U 1 1 5AF0441F
P 5500 1900
F 0 "#PWR039" H 5500 1650 50  0001 C CNN
F 1 "GND" H 5500 1750 50  0000 C CNN
F 2 "" H 5500 1900 50  0001 C CNN
F 3 "" H 5500 1900 50  0001 C CNN
	1    5500 1900
	1    0    0    -1  
$EndComp
Wire Wire Line
	5500 1900 5500 1800
Wire Wire Line
	5500 1500 5500 1600
Wire Wire Line
	1900 4200 2100 4200
$Comp
L Device:C_Small C10
U 1 1 5AF06221
P 1300 4300
F 0 "C10" H 1310 4370 50  0000 L CNN
F 1 "100n" H 1310 4220 50  0000 L CNN
F 2 "Capacitor_SMD:C_0603_1608Metric" H 1300 4300 50  0001 C CNN
F 3 "" H 1300 4300 50  0001 C CNN
	1    1300 4300
	1    0    0    -1  
$EndComp
$Comp
L Device:R_Small R16
U 1 1 5AF069B5
P 1300 3900
F 0 "R16" H 1330 3920 50  0000 L CNN
F 1 "330R" H 1330 3860 50  0000 L CNN
F 2 "Resistor_SMD:R_0603_1608Metric" H 1300 3900 50  0001 C CNN
F 3 "" H 1300 3900 50  0001 C CNN
	1    1300 3900
	1    0    0    -1  
$EndComp
Wire Wire Line
	3300 1800 3300 1700
Wire Wire Line
	1300 4000 1300 4100
Wire Wire Line
	1300 4100 2100 4100
Connection ~ 1300 4100
Wire Wire Line
	1300 3500 1300 3600
Wire Wire Line
	1300 4400 1300 5100
Wire Wire Line
	1300 3600 1700 3600
Connection ~ 1300 3600
Wire Wire Line
	1300 5100 1900 5100
Wire Wire Line
	1900 4200 1900 5100
Connection ~ 1300 5100
$Comp
L Device:R_Small R19
U 1 1 5AF09027
P 2600 3600
F 0 "R19" H 2630 3620 50  0000 L CNN
F 1 "2.2k" H 2630 3560 50  0000 L CNN
F 2 "Resistor_SMD:R_0603_1608Metric" H 2600 3600 50  0001 C CNN
F 3 "" H 2600 3600 50  0001 C CNN
	1    2600 3600
	0    1    1    0   
$EndComp
Wire Wire Line
	1900 4000 2100 4000
Wire Wire Line
	1900 3600 1900 4000
Wire Wire Line
	1900 3600 2500 3600
Connection ~ 1900 5100
Wire Wire Line
	2700 3600 3800 3600
$Comp
L power:GND #PWR040
U 1 1 5AF09BF1
P 4000 5200
F 0 "#PWR040" H 4000 4950 50  0001 C CNN
F 1 "GND" H 4000 5050 50  0000 C CNN
F 2 "" H 4000 5200 50  0001 C CNN
F 3 "" H 4000 5200 50  0001 C CNN
	1    4000 5200
	1    0    0    -1  
$EndComp
Wire Wire Line
	1700 3600 1700 3400
$Comp
L Transistor_FET:BSS138 Q1
U 1 1 5AF0BC5B
P 2800 5000
F 0 "Q1" H 3000 5075 50  0000 L CNN
F 1 "BSS138" H 3000 5000 50  0000 L CNN
F 2 "Package_TO_SOT_SMD:SOT-23" H 3000 4925 50  0001 L CIN
F 3 "" H 2800 5000 50  0001 L CNN
	1    2800 5000
	0    1    1    0   
$EndComp
$Comp
L Transistor_FET:BSS138 Q2
U 1 1 5AF0C472
P 3400 5000
F 0 "Q2" H 3600 5075 50  0000 L CNN
F 1 "BSS138" H 3600 5000 50  0000 L CNN
F 2 "Package_TO_SOT_SMD:SOT-23" H 3600 4925 50  0001 L CIN
F 3 "" H 3400 5000 50  0001 L CNN
	1    3400 5000
	0    -1   1    0   
$EndComp
Wire Wire Line
	3800 3600 3800 5100
Wire Wire Line
	3600 5100 3800 5100
Wire Wire Line
	4000 5100 4000 5200
Connection ~ 3800 5100
Wire Wire Line
	2800 4800 2800 4500
Wire Wire Line
	2800 4500 3200 4500
Wire Wire Line
	3200 4500 3200 4200
Wire Wire Line
	3200 4200 3100 4200
Wire Wire Line
	3100 4100 3400 4100
Wire Wire Line
	3400 4100 3400 4800
Wire Wire Line
	3000 5100 3200 5100
$Comp
L Device:L_Small L1
U 1 1 5AF104B7
P 8100 3300
F 0 "L1" H 8130 3340 50  0000 L CNN
F 1 "4.7u" H 8130 3260 50  0000 L CNN
F 2 "Resistor_SMD:R_1210_3225Metric" H 8100 3300 50  0001 C CNN
F 3 "" H 8100 3300 50  0001 C CNN
	1    8100 3300
	0    -1   -1   0   
$EndComp
Wire Wire Line
	7500 3700 7400 3700
Wire Wire Line
	7400 3700 7400 3300
Wire Wire Line
	7400 3300 8000 3300
Wire Wire Line
	8200 3300 8800 3300
Wire Wire Line
	8800 3300 8800 3700
Wire Wire Line
	8800 3700 8700 3700
$Comp
L Device:C_Small C15
U 1 1 5AF11088
P 9500 4000
F 0 "C15" H 9510 4070 50  0000 L CNN
F 1 "10u/6.3V" H 9510 3920 50  0000 L CNN
F 2 "Capacitor_SMD:C_0805_2012Metric" H 9500 4000 50  0001 C CNN
F 3 "" H 9500 4000 50  0001 C CNN
	1    9500 4000
	1    0    0    -1  
$EndComp
$Comp
L Device:C_Small C16
U 1 1 5AF111A0
P 10000 4000
F 0 "C16" H 10010 4070 50  0000 L CNN
F 1 "10u/6.3V" H 10010 3920 50  0000 L CNN
F 2 "Capacitor_SMD:C_0805_2012Metric" H 10000 4000 50  0001 C CNN
F 3 "" H 10000 4000 50  0001 C CNN
	1    10000 4000
	1    0    0    -1  
$EndComp
Wire Wire Line
	10000 3600 10000 3900
Wire Wire Line
	9500 3600 9500 3900
$Comp
L power:GND #PWR041
U 1 1 5AF11567
P 9500 4200
F 0 "#PWR041" H 9500 3950 50  0001 C CNN
F 1 "GND" H 9500 4050 50  0000 C CNN
F 2 "" H 9500 4200 50  0001 C CNN
F 3 "" H 9500 4200 50  0001 C CNN
	1    9500 4200
	1    0    0    -1  
$EndComp
$Comp
L power:GND #PWR042
U 1 1 5AF116DA
P 10000 4200
F 0 "#PWR042" H 10000 3950 50  0001 C CNN
F 1 "GND" H 10000 4050 50  0000 C CNN
F 2 "" H 10000 4200 50  0001 C CNN
F 3 "" H 10000 4200 50  0001 C CNN
	1    10000 4200
	1    0    0    -1  
$EndComp
Wire Wire Line
	9500 4200 9500 4100
Wire Wire Line
	10000 4200 10000 4100
$Comp
L Device:C_Small C13
U 1 1 5AF1298D
P 6400 4000
F 0 "C13" H 6410 4070 50  0000 L CNN
F 1 "4.7u/10V" H 6410 3920 50  0000 L CNN
F 2 "Capacitor_SMD:C_0805_2012Metric" H 6400 4000 50  0001 C CNN
F 3 "" H 6400 4000 50  0001 C CNN
	1    6400 4000
	1    0    0    -1  
$EndComp
$Comp
L Device:C_Small C12
U 1 1 5AF12C0A
P 5900 4000
F 0 "C12" H 5910 4070 50  0000 L CNN
F 1 "4.7u/10V" H 5910 3920 50  0000 L CNN
F 2 "Capacitor_SMD:C_0805_2012Metric" H 5900 4000 50  0001 C CNN
F 3 "" H 5900 4000 50  0001 C CNN
	1    5900 4000
	1    0    0    -1  
$EndComp
Wire Wire Line
	5800 3700 5800 3800
Wire Wire Line
	5800 3800 5900 3800
Wire Wire Line
	6400 3900 6400 3800
Connection ~ 6400 3800
Wire Wire Line
	5900 3900 5900 3800
Connection ~ 5900 3800
$Comp
L power:GND #PWR043
U 1 1 5AF132D8
P 5900 4200
F 0 "#PWR043" H 5900 3950 50  0001 C CNN
F 1 "GND" H 5900 4050 50  0000 C CNN
F 2 "" H 5900 4200 50  0001 C CNN
F 3 "" H 5900 4200 50  0001 C CNN
	1    5900 4200
	1    0    0    -1  
$EndComp
$Comp
L power:GND #PWR044
U 1 1 5AF13331
P 6400 4200
F 0 "#PWR044" H 6400 3950 50  0001 C CNN
F 1 "GND" H 6400 4050 50  0000 C CNN
F 2 "" H 6400 4200 50  0001 C CNN
F 3 "" H 6400 4200 50  0001 C CNN
	1    6400 4200
	1    0    0    -1  
$EndComp
$Comp
L power:GND #PWR045
U 1 1 5AF1338A
P 7400 4300
F 0 "#PWR045" H 7400 4050 50  0001 C CNN
F 1 "GND" H 7400 4150 50  0000 C CNN
F 2 "" H 7400 4300 50  0001 C CNN
F 3 "" H 7400 4300 50  0001 C CNN
	1    7400 4300
	1    0    0    -1  
$EndComp
Wire Wire Line
	7500 4200 7400 4200
Wire Wire Line
	7400 4200 7400 4300
Wire Wire Line
	6400 4200 6400 4100
Wire Wire Line
	5900 4200 5900 4100
$Comp
L Device:C_Small C14
U 1 1 5AF14EAE
P 6900 4100
F 0 "C14" H 6910 4170 50  0000 L CNN
F 1 "100n" H 6910 4020 50  0000 L CNN
F 2 "Capacitor_SMD:C_0603_1608Metric" H 6900 4100 50  0001 C CNN
F 3 "" H 6900 4100 50  0001 C CNN
	1    6900 4100
	1    0    0    -1  
$EndComp
Wire Wire Line
	6900 3900 7400 3900
Wire Wire Line
	6900 3900 6900 4000
$Comp
L power:GND #PWR046
U 1 1 5AF153A3
P 6900 4300
F 0 "#PWR046" H 6900 4050 50  0001 C CNN
F 1 "GND" H 6900 4150 50  0000 C CNN
F 2 "" H 6900 4300 50  0001 C CNN
F 3 "" H 6900 4300 50  0001 C CNN
	1    6900 4300
	1    0    0    -1  
$EndComp
Wire Wire Line
	6900 4300 6900 4200
Wire Wire Line
	7500 4000 7400 4000
Wire Wire Line
	7400 3900 7400 4000
Connection ~ 7400 3900
Wire Wire Line
	7400 4100 7500 4100
Connection ~ 7400 4000
$Comp
L power:GND #PWR047
U 1 1 5AF16126
P 8800 4300
F 0 "#PWR047" H 8800 4050 50  0001 C CNN
F 1 "GND" H 8800 4150 50  0000 C CNN
F 2 "" H 8800 4300 50  0001 C CNN
F 3 "" H 8800 4300 50  0001 C CNN
	1    8800 4300
	1    0    0    -1  
$EndComp
Wire Wire Line
	8700 4200 8800 4200
Wire Wire Line
	8800 4100 8800 4200
Wire Wire Line
	8700 4100 8800 4100
Connection ~ 8800 4200
$Comp
L Device:R_Small R22
U 1 1 5AF1663F
P 9000 4200
F 0 "R22" H 9030 4220 50  0000 L CNN
F 1 "120k" H 9030 4160 50  0000 L CNN
F 2 "Resistor_SMD:R_0603_1608Metric" H 9000 4200 50  0001 C CNN
F 3 "" H 9000 4200 50  0001 C CNN
	1    9000 4200
	1    0    0    -1  
$EndComp
$Comp
L Device:R_Small R21
U 1 1 5AF166AC
P 9000 3800
F 0 "R21" H 9030 3820 50  0000 L CNN
F 1 "680k" H 9030 3760 50  0000 L CNN
F 2 "Resistor_SMD:R_0603_1608Metric" H 9000 3800 50  0001 C CNN
F 3 "" H 9000 3800 50  0001 C CNN
	1    9000 3800
	1    0    0    -1  
$EndComp
Wire Wire Line
	8700 4000 9000 4000
Wire Wire Line
	9000 3900 9000 4000
Connection ~ 9000 4000
Wire Wire Line
	8700 3800 8900 3800
Wire Wire Line
	8900 3800 8900 3600
Wire Wire Line
	8900 3600 9000 3600
Wire Wire Line
	9000 3600 9000 3700
$Comp
L power:GND #PWR048
U 1 1 5AF17AFB
P 9000 4400
F 0 "#PWR048" H 9000 4150 50  0001 C CNN
F 1 "GND" H 9000 4250 50  0000 C CNN
F 2 "" H 9000 4400 50  0001 C CNN
F 3 "" H 9000 4400 50  0001 C CNN
	1    9000 4400
	1    0    0    -1  
$EndComp
Wire Wire Line
	9000 4400 9000 4300
Wire Wire Line
	10200 3600 10200 3500
Connection ~ 9000 3600
Connection ~ 10000 3600
Connection ~ 9500 3600
Text Notes 8300 4900 0    79   Italic 16
DESIGN NOTE:
Text Notes 8300 5300 0    60   ~ 0
When using fixed-voltage version\n(TPS63031) short the top feedback\nresistor with 0R brigde and leave the \nbottom feedback resistor unpopulated
Wire Notes Line
	8200 4700 8200 5400
Wire Notes Line
	8200 5400 10100 5400
Wire Notes Line
	10100 5400 10100 4700
Wire Notes Line
	10100 4700 8200 4700
Text Notes 2200 5800 0    79   Italic 16
DESIGN NOTE:
Text Notes 2200 6100 0    60   ~ 0
Output mosfet selection parameters:\n- minimum continous current: 1A\n- source-drain resistance: max 0.1R
Wire Notes Line
	2100 5600 2100 6300
Wire Notes Line
	2100 6300 4000 6300
Wire Notes Line
	4000 6300 4000 5600
Wire Notes Line
	4000 5600 2100 5600
Text Notes 3300 2600 0    79   Italic 16
DESIGN NOTE:
Text Notes 3300 2800 0    60   ~ 0
Selected current limiting resistor\nto limit current to about 85mA
Wire Notes Line
	3200 2400 3200 2900
Wire Notes Line
	3200 2900 5100 2900
Wire Notes Line
	5100 2900 5100 2400
Wire Notes Line
	5100 2400 3200 2400
$Comp
L Device:D_Zener_Small_ALT D2
U 1 1 5AEF8E28
P 2100 1200
F 0 "D2" H 2100 1290 50  0000 C CNN
F 1 "5.1V" H 2100 1110 50  0000 C CNN
F 2 "Resistor_SMD:R_1210_3225Metric" V 2100 1200 50  0001 C CNN
F 3 "" V 2100 1200 50  0001 C CNN
	1    2100 1200
	0    1    1    0   
$EndComp
$Comp
L power:GND #PWR049
U 1 1 5AEF8F0F
P 2100 1400
F 0 "#PWR049" H 2100 1150 50  0001 C CNN
F 1 "GND" H 2100 1250 50  0000 C CNN
F 2 "" H 2100 1400 50  0001 C CNN
F 3 "" H 2100 1400 50  0001 C CNN
	1    2100 1400
	1    0    0    -1  
$EndComp
$Comp
L power:+5V #PWR050
U 1 1 5AEF8F74
P 2100 1000
AR Path="/5AEF8F74" Ref="#PWR050"  Part="1" 
AR Path="/5AEB63E9/5AEF8F74" Ref="#PWR050"  Part="1" 
F 0 "#PWR050" H 2100 850 50  0001 C CNN
F 1 "+5V" H 2100 1140 50  0000 C CNN
F 2 "" H 2100 1000 50  0001 C CNN
F 3 "" H 2100 1000 50  0001 C CNN
	1    2100 1000
	1    0    0    -1  
$EndComp
Wire Wire Line
	2100 1100 2100 1000
Wire Wire Line
	2100 1300 2100 1400
Text Notes 1900 1700 0    60   ~ 0
SOD-123\n
$Comp
L Device:C_Small C6
U 1 1 5AFCBBED
P 2700 1500
F 0 "C6" H 2710 1570 50  0000 L CNN
F 1 "4.7u/10V" H 2710 1420 50  0000 L CNN
F 2 "Capacitor_SMD:C_0805_2012Metric" H 2700 1500 50  0001 C CNN
F 3 "" H 2700 1500 50  0001 C CNN
	1    2700 1500
	1    0    0    -1  
$EndComp
$Comp
L power:+5V #PWR051
U 1 1 5AFCBCA4
P 2700 1300
AR Path="/5AFCBCA4" Ref="#PWR051"  Part="1" 
AR Path="/5AEB63E9/5AFCBCA4" Ref="#PWR051"  Part="1" 
F 0 "#PWR051" H 2700 1150 50  0001 C CNN
F 1 "+5V" H 2700 1440 50  0000 C CNN
F 2 "" H 2700 1300 50  0001 C CNN
F 3 "" H 2700 1300 50  0001 C CNN
	1    2700 1300
	1    0    0    -1  
$EndComp
$Comp
L power:GND #PWR052
U 1 1 5AFCBD0C
P 2700 1700
F 0 "#PWR052" H 2700 1450 50  0001 C CNN
F 1 "GND" H 2700 1550 50  0000 C CNN
F 2 "" H 2700 1700 50  0001 C CNN
F 3 "" H 2700 1700 50  0001 C CNN
	1    2700 1700
	1    0    0    -1  
$EndComp
Wire Wire Line
	2700 1600 2700 1700
Wire Wire Line
	2700 1400 2700 1300
Wire Wire Line
	3300 1800 3700 1800
Text Notes 2200 6200 0    60   Italic 12
DMN2050L-7
Text Notes 7800 3000 0    60   Italic 12
DJNR4018-1R5-S
Wire Wire Line
	1100 1800 1100 1900
Wire Wire Line
	1700 1100 1700 1200
Wire Wire Line
	5000 2000 5000 2100
Wire Wire Line
	3300 1100 3300 1200
Wire Wire Line
	1300 4100 1300 4200
Wire Wire Line
	1300 3600 1300 3800
Wire Wire Line
	1300 5100 1300 5200
Wire Wire Line
	1900 5100 2600 5100
Wire Wire Line
	3800 5100 4000 5100
Wire Wire Line
	6400 3800 7500 3800
Wire Wire Line
	5900 3800 6400 3800
Wire Wire Line
	7400 3900 7500 3900
Wire Wire Line
	7400 4000 7400 4100
Wire Wire Line
	8800 4200 8800 4300
Wire Wire Line
	9000 4000 9000 4100
Wire Wire Line
	9000 3600 9500 3600
Wire Wire Line
	10000 3600 10200 3600
Wire Wire Line
	9500 3600 10000 3600
Wire Wire Line
	6200 1900 6200 2300
Wire Wire Line
	6200 1500 6200 1900
$EndSCHEMATC
