EESchema Schematic File Version 4
LIBS:BeerBob-cache
EELAYER 26 0
EELAYER END
$Descr A4 11693 8268
encoding utf-8
Sheet 1 2
Title "BeerBob"
Date ""
Rev "1.1"
Comp "Open Brewery"
Comment1 "https://gitlab.com/OpenBrewery/BeerBob_HW"
Comment2 "Licensed under GPLv2"
Comment3 "and data aggregation project"
Comment4 "Beer Bob - Fermentation measurement"
$EndDescr
$Comp
L BeerBob-rescue:Logo_Open_Hardware_Small #LOGO1
U 1 1 5A5E4F23
P 10900 6800
F 0 "#LOGO1" H 10900 7075 50  0001 C CNN
F 1 "Logo_Open_Hardware_Small" H 10900 6575 50  0001 C CNN
F 2 "" H 10900 6800 50  0001 C CNN
F 3 "" H 10900 6800 50  0001 C CNN
	1    10900 6800
	1    0    0    -1  
$EndComp
$Sheet
S 700  800  1000 1500
U 5AEB63E9
F0 "B_PSU" 60
F1 "BeerBob_PSU.sch" 60
F2 "VBAT_SENS" O R 1700 1200 59 
$EndSheet
Text Label 5400 1950 0    60   ~ 0
ESP_SCL
Text Label 5400 3250 0    60   ~ 0
VBAT_SENS
$Comp
L power:+3.3V #PWR06
U 1 1 5AEC32C9
P 9300 1350
F 0 "#PWR06" H 9300 1200 50  0001 C CNN
F 1 "+3.3V" H 9300 1490 50  0000 C CNN
F 2 "" H 9300 1350 50  0001 C CNN
F 3 "" H 9300 1350 50  0001 C CNN
	1    9300 1350
	1    0    0    -1  
$EndComp
$Comp
L power:GND #PWR07
U 1 1 5AEC32D3
P 9200 3850
F 0 "#PWR07" H 9200 3600 50  0001 C CNN
F 1 "GND" H 9200 3700 50  0000 C CNN
F 2 "" H 9200 3850 50  0001 C CNN
F 3 "" H 9200 3850 50  0001 C CNN
	1    9200 3850
	1    0    0    -1  
$EndComp
$Comp
L power:GND #PWR08
U 1 1 5AEC32DF
P 8500 3050
F 0 "#PWR08" H 8500 2800 50  0001 C CNN
F 1 "GND" H 8500 2900 50  0000 C CNN
F 2 "" H 8500 3050 50  0001 C CNN
F 3 "" H 8500 3050 50  0001 C CNN
	1    8500 3050
	1    0    0    -1  
$EndComp
$Comp
L Device:C_Small C5
U 1 1 5AEC32E7
P 10400 2950
F 0 "C5" H 10410 3020 50  0000 L CNN
F 1 "100n" H 10410 2870 50  0000 L CNN
F 2 "Capacitor_SMD:C_0603_1608Metric" H 10400 2950 50  0001 C CNN
F 3 "" H 10400 2950 50  0001 C CNN
	1    10400 2950
	1    0    0    -1  
$EndComp
$Comp
L power:GND #PWR09
U 1 1 5AEC32F7
P 10400 3150
F 0 "#PWR09" H 10400 2900 50  0001 C CNN
F 1 "GND" H 10400 3000 50  0000 C CNN
F 2 "" H 10400 3150 50  0001 C CNN
F 3 "" H 10400 3150 50  0001 C CNN
	1    10400 3150
	1    0    0    -1  
$EndComp
Text Label 8300 2550 0    60   ~ 0
SDA
Text Label 8300 2450 0    60   ~ 0
SCL
$Comp
L beerbob:MMA8452QT U3
U 1 1 5AEC3310
P 9400 2650
F 0 "U3" H 8950 3400 50  0000 C CNN
F 1 "MMA8452QT" H 9950 1750 50  0000 C CNN
F 2 "beerbob_footprints:NXP_QFN-16-1EP_3x3mm_Pitch0.5mm" H 8700 1650 60  0001 C CNN
F 3 "" H 8700 1650 60  0001 C CNN
	1    9400 2650
	1    0    0    -1  
$EndComp
$Comp
L Device:R_Small R10
U 1 1 5AEC331F
P 8500 1000
F 0 "R10" H 8530 1020 50  0000 L CNN
F 1 "120k" H 8530 960 50  0000 L CNN
F 2 "Resistor_SMD:R_0603_1608Metric" H 8500 1000 50  0001 C CNN
F 3 "" H 8500 1000 50  0001 C CNN
	1    8500 1000
	-1   0    0    1   
$EndComp
$Comp
L Device:R_Small R11
U 1 1 5AEC3326
P 8800 1000
F 0 "R11" H 8830 1020 50  0000 L CNN
F 1 "120k" H 8830 960 50  0000 L CNN
F 2 "Resistor_SMD:R_0603_1608Metric" H 8800 1000 50  0001 C CNN
F 3 "" H 8800 1000 50  0001 C CNN
	1    8800 1000
	-1   0    0    1   
$EndComp
$Comp
L power:+3.3V #PWR010
U 1 1 5AEC332D
P 8800 800
F 0 "#PWR010" H 8800 650 50  0001 C CNN
F 1 "+3.3V" H 8800 940 50  0000 C CNN
F 2 "" H 8800 800 50  0001 C CNN
F 3 "" H 8800 800 50  0001 C CNN
	1    8800 800 
	1    0    0    -1  
$EndComp
$Comp
L power:+3.3V #PWR011
U 1 1 5AEC3333
P 8500 800
F 0 "#PWR011" H 8500 650 50  0001 C CNN
F 1 "+3.3V" H 8500 940 50  0000 C CNN
F 2 "" H 8500 800 50  0001 C CNN
F 3 "" H 8500 800 50  0001 C CNN
	1    8500 800 
	1    0    0    -1  
$EndComp
Text Label 8850 1300 0    60   ~ 0
SCL
Text Label 8850 1500 0    60   ~ 0
SDA
Text Label 3050 1850 0    60   ~ 0
ESP_RST
$Comp
L power:+3.3V #PWR012
U 1 1 5AEC336F
P 2600 4700
F 0 "#PWR012" H 2600 4550 50  0001 C CNN
F 1 "+3.3V" H 2600 4840 50  0000 C CNN
F 2 "" H 2600 4700 50  0001 C CNN
F 3 "" H 2600 4700 50  0001 C CNN
	1    2600 4700
	1    0    0    -1  
$EndComp
$Comp
L power:GND #PWR013
U 1 1 5AEC337D
P 2600 6100
F 0 "#PWR013" H 2600 5850 50  0001 C CNN
F 1 "GND" H 2600 5950 50  0000 C CNN
F 2 "" H 2600 6100 50  0001 C CNN
F 3 "" H 2600 6100 50  0001 C CNN
	1    2600 6100
	1    0    0    -1  
$EndComp
$Comp
L Device:C_Small C2
U 1 1 5AEC3387
P 1400 6000
F 0 "C2" H 1410 6070 50  0000 L CNN
F 1 "100n" H 1410 5920 50  0000 L CNN
F 2 "Capacitor_SMD:C_0603_1608Metric" H 1400 6000 50  0001 C CNN
F 3 "" H 1400 6000 50  0001 C CNN
	1    1400 6000
	1    0    0    -1  
$EndComp
$Comp
L power:+3.3V #PWR014
U 1 1 5AEC338E
P 1400 5800
F 0 "#PWR014" H 1400 5650 50  0001 C CNN
F 1 "+3.3V" H 1400 5940 50  0000 C CNN
F 2 "" H 1400 5800 50  0001 C CNN
F 3 "" H 1400 5800 50  0001 C CNN
	1    1400 5800
	1    0    0    -1  
$EndComp
$Comp
L BeerBob-rescue:GND #PWR015
U 1 1 5AEC3394
P 1400 6200
F 0 "#PWR015" H 1400 5950 50  0001 C CNN
F 1 "GND" H 1400 6050 50  0000 C CNN
F 2 "" H 1400 6200 50  0001 C CNN
F 3 "" H 1400 6200 50  0001 C CNN
	1    1400 6200
	1    0    0    -1  
$EndComp
$Comp
L BeerBob-rescue:R_Small R4
U 1 1 5AEC339C
P 3300 5100
F 0 "R4" H 3330 5120 50  0000 L CNN
F 1 "820k" H 3330 5060 50  0000 L CNN
F 2 "Resistor_SMD:R_0603_1608Metric" H 3300 5100 50  0001 C CNN
F 3 "" H 3300 5100 50  0001 C CNN
	1    3300 5100
	-1   0    0    1   
$EndComp
$Comp
L power:+3.3V #PWR016
U 1 1 5AEC33A3
P 3550 1650
F 0 "#PWR016" H 3550 1500 50  0001 C CNN
F 1 "+3.3V" H 3550 1790 50  0000 C CNN
F 2 "" H 3550 1650 50  0001 C CNN
F 3 "" H 3550 1650 50  0001 C CNN
	1    3550 1650
	1    0    0    -1  
$EndComp
Text Label 3400 5300 0    60   ~ 0
TEMP_ALERT
Text Label 1700 5300 0    60   ~ 0
SCL
Text Label 1700 5200 0    60   ~ 0
SDA
$Comp
L Device:R_Small R1
U 1 1 5AEC33B2
P 2000 5700
F 0 "R1" H 2030 5720 50  0000 L CNN
F 1 "820k" H 2030 5660 50  0000 L CNN
F 2 "Resistor_SMD:R_0603_1608Metric" H 2000 5700 50  0001 C CNN
F 3 "" H 2000 5700 50  0001 C CNN
	1    2000 5700
	-1   0    0    1   
$EndComp
$Comp
L power:GND #PWR017
U 1 1 5AEC33B9
P 2000 5900
F 0 "#PWR017" H 2000 5650 50  0001 C CNN
F 1 "GND" H 2000 5750 50  0000 C CNN
F 2 "" H 2000 5900 50  0001 C CNN
F 3 "" H 2000 5900 50  0001 C CNN
	1    2000 5900
	1    0    0    -1  
$EndComp
Text Label 1900 1200 0    60   ~ 0
VBAT_SENS
Text Notes 9600 6300 0    60   ~ 0
Compatible temperature +\nhumidity sensors:\nHDC1080\nSHT21D\nSHT20
Text Notes 9600 5800 0    79   Italic 16
DESIGN NOTE:
Text Notes 2000 6800 0    79   Italic 16
DESIGN NOTE:
Text Notes 2000 7200 0    61   ~ 0
Not assembled by default\nin favor of integrated\ntemperature + humidity \nsensor
$Comp
L beerbob:TMP116 U1
U 1 1 5AF02628
P 2600 5300
F 0 "U1" H 2400 5650 50  0000 C CNN
F 1 "TMP116" H 2900 4850 50  0000 C CNN
F 2 "beerbob_footprints:TI_WSON_6P_2x2" H 1900 4300 60  0001 C CNN
F 3 "" H 1900 4300 60  0001 C CNN
	1    2600 5300
	1    0    0    -1  
$EndComp
$Comp
L power:GND #PWR018
U 1 1 5AEF63AE
P 7200 6200
F 0 "#PWR018" H 7200 5950 50  0001 C CNN
F 1 "GND" H 7200 6050 50  0000 C CNN
F 2 "" H 7200 6200 50  0001 C CNN
F 3 "" H 7200 6200 50  0001 C CNN
	1    7200 6200
	1    0    0    -1  
$EndComp
$Comp
L power:+3.3V #PWR019
U 1 1 5AEF651C
P 7200 4900
F 0 "#PWR019" H 7200 4750 50  0001 C CNN
F 1 "+3.3V" H 7200 5040 50  0000 C CNN
F 2 "" H 7200 4900 50  0001 C CNN
F 3 "" H 7200 4900 50  0001 C CNN
	1    7200 4900
	1    0    0    -1  
$EndComp
Text Label 6500 5500 0    60   ~ 0
SCL
Text Label 6500 5400 0    60   ~ 0
SDA
$Comp
L Device:C_Small C8
U 1 1 5AEF887F
P 8700 5600
F 0 "C8" H 8710 5670 50  0000 L CNN
F 1 "100n" H 8710 5520 50  0000 L CNN
F 2 "Capacitor_SMD:C_0603_1608Metric" H 8700 5600 50  0001 C CNN
F 3 "" H 8700 5600 50  0001 C CNN
	1    8700 5600
	1    0    0    -1  
$EndComp
$Comp
L power:+3.3V #PWR020
U 1 1 5AEF8926
P 8700 5400
F 0 "#PWR020" H 8700 5250 50  0001 C CNN
F 1 "+3.3V" H 8700 5540 50  0000 C CNN
F 2 "" H 8700 5400 50  0001 C CNN
F 3 "" H 8700 5400 50  0001 C CNN
	1    8700 5400
	1    0    0    -1  
$EndComp
$Comp
L power:GND #PWR021
U 1 1 5AEF897C
P 8700 5800
F 0 "#PWR021" H 8700 5550 50  0001 C CNN
F 1 "GND" H 8700 5650 50  0000 C CNN
F 2 "" H 8700 5800 50  0001 C CNN
F 3 "" H 8700 5800 50  0001 C CNN
	1    8700 5800
	1    0    0    -1  
$EndComp
$Comp
L Device:C_Small C9
U 1 1 5AEF9022
P 9100 5600
F 0 "C9" H 9110 5670 50  0000 L CNN
F 1 "10u/6.3V" H 9110 5520 50  0000 L CNN
F 2 "Capacitor_SMD:C_0603_1608Metric" H 9100 5600 50  0001 C CNN
F 3 "" H 9100 5600 50  0001 C CNN
	1    9100 5600
	1    0    0    -1  
$EndComp
$Comp
L power:+3.3V #PWR022
U 1 1 5AEF90BA
P 9100 5400
F 0 "#PWR022" H 9100 5250 50  0001 C CNN
F 1 "+3.3V" H 9100 5540 50  0000 C CNN
F 2 "" H 9100 5400 50  0001 C CNN
F 3 "" H 9100 5400 50  0001 C CNN
	1    9100 5400
	1    0    0    -1  
$EndComp
$Comp
L power:GND #PWR023
U 1 1 5AEF9221
P 9100 5800
F 0 "#PWR023" H 9100 5550 50  0001 C CNN
F 1 "GND" H 9100 5650 50  0000 C CNN
F 2 "" H 9100 5800 50  0001 C CNN
F 3 "" H 9100 5800 50  0001 C CNN
	1    9100 5800
	1    0    0    -1  
$EndComp
$Comp
L beerbob:SHT21D U4
U 1 1 5AEFD1B2
P 7200 5500
F 0 "U4" H 7000 5850 50  0000 C CNN
F 1 "SHT21D" H 7500 5050 50  0000 C CNN
F 2 "beerbob_footprints:TI_PWSON_6_3x3" H 6500 4500 60  0001 C CNN
F 3 "" H 6500 4500 60  0001 C CNN
	1    7200 5500
	1    0    0    -1  
$EndComp
$Comp
L Connector:Conn_01x06_Male J4
U 1 1 5AFB45B1
P 1950 3300
F 0 "J4" H 1950 3600 50  0000 C CNN
F 1 "Conn_01x06_Male" H 2100 2900 50  0000 C CNN
F 2 "beerbob_footprints:Connector-1x06-2.54-SMT" H 1950 3300 50  0001 C CNN
F 3 "" H 1950 3300 50  0001 C CNN
	1    1950 3300
	-1   0    0    -1  
$EndComp
Text Label 1000 3300 0    60   ~ 0
ESP_BOOT_SDA
Text Label 1000 3400 0    60   ~ 0
ESP_RST
Text Label 1000 3100 0    60   ~ 0
ESP_TX
Text Label 1000 3200 0    60   ~ 0
ESP_RX
$Comp
L power:+3.3V #PWR024
U 1 1 5AFB5394
P 1100 3500
F 0 "#PWR024" H 1100 3350 50  0001 C CNN
F 1 "+3.3V" H 1100 3640 50  0000 C CNN
F 2 "" H 1100 3500 50  0001 C CNN
F 3 "" H 1100 3500 50  0001 C CNN
	1    1100 3500
	0    -1   -1   0   
$EndComp
$Comp
L power:GND #PWR025
U 1 1 5AFB53F0
P 1300 3700
F 0 "#PWR025" H 1300 3450 50  0001 C CNN
F 1 "GND" H 1300 3550 50  0000 C CNN
F 2 "" H 1300 3700 50  0001 C CNN
F 3 "" H 1300 3700 50  0001 C CNN
	1    1300 3700
	1    0    0    -1  
$EndComp
Text Notes 1000 4100 0    61   ~ 12
Programming header
Text Label 5350 2550 0    60   ~ 0
TEMP_ALERT
$Comp
L power:GND #PWR026
U 1 1 5AFC95CB
P 7900 5900
F 0 "#PWR026" H 7900 5650 50  0001 C CNN
F 1 "GND" H 7900 5750 50  0000 C CNN
F 2 "" H 7900 5900 50  0001 C CNN
F 3 "" H 7900 5900 50  0001 C CNN
	1    7900 5900
	1    0    0    -1  
$EndComp
$Comp
L Device:R_Small R23
U 1 1 5AFC91F5
P 7900 5700
F 0 "R23" H 7930 5720 50  0000 L CNN
F 1 "0R" H 7930 5660 50  0000 L CNN
F 2 "Resistor_SMD:R_0603_1608Metric" H 7900 5700 50  0001 C CNN
F 3 "" H 7900 5700 50  0001 C CNN
	1    7900 5700
	-1   0    0    1   
$EndComp
Wire Wire Line
	9300 1350 9300 1550
Wire Wire Line
	9300 1550 9500 1550
Wire Wire Line
	9500 1550 9500 1750
Connection ~ 9300 1550
Wire Wire Line
	9200 3650 9200 3750
Wire Wire Line
	9200 3750 9400 3750
Wire Wire Line
	9600 3750 9600 3650
Connection ~ 9200 3750
Wire Wire Line
	9400 3650 9400 3750
Connection ~ 9400 3750
Wire Wire Line
	8700 2850 8500 2850
Wire Wire Line
	8500 2850 8500 3050
Wire Wire Line
	10100 2650 10400 2650
Wire Wire Line
	10400 2650 10400 2850
Wire Wire Line
	10400 3050 10400 3150
Wire Wire Line
	8100 2450 8700 2450
Wire Wire Line
	8100 2550 8700 2550
Wire Wire Line
	8500 800  8500 900 
Wire Wire Line
	8800 800  8800 900 
Wire Wire Line
	8800 1300 8800 1100
Wire Wire Line
	8500 1500 8500 1100
Wire Wire Line
	2600 4700 2600 4800
Wire Wire Line
	2600 5900 2600 6000
Wire Wire Line
	2700 5900 2700 6000
Wire Wire Line
	2700 6000 2600 6000
Connection ~ 2600 6000
Wire Wire Line
	1400 5900 1400 5800
Wire Wire Line
	1400 6100 1400 6200
Wire Wire Line
	3300 4900 3300 5000
Wire Wire Line
	3300 5200 3300 5300
Wire Wire Line
	3100 5300 3300 5300
Connection ~ 3300 5300
Wire Wire Line
	1500 5200 2100 5200
Wire Wire Line
	1500 5300 2100 5300
Wire Wire Line
	2000 5900 2000 5800
Wire Wire Line
	2100 5400 2000 5400
Wire Wire Line
	2000 5400 2000 5600
Wire Wire Line
	2500 1200 1700 1200
Wire Notes Line
	10900 5600 10900 6400
Wire Notes Line
	10900 6400 9500 6400
Wire Notes Line
	9500 6400 9500 5600
Wire Notes Line
	9500 5600 10900 5600
Wire Notes Line
	1900 6600 3300 6600
Wire Notes Line
	3300 6600 3300 7300
Wire Notes Line
	3300 7300 1900 7300
Wire Notes Line
	1900 7300 1900 6600
Wire Wire Line
	7200 4900 7200 5000
Wire Wire Line
	7200 6100 7200 6200
Wire Wire Line
	6400 5400 6700 5400
Wire Wire Line
	6400 5500 6700 5500
Wire Wire Line
	8700 5800 8700 5700
Wire Wire Line
	8700 5500 8700 5400
Wire Wire Line
	9100 5700 9100 5800
Wire Wire Line
	9100 5400 9100 5500
Wire Wire Line
	1300 3600 1300 3700
Wire Notes Line
	800  2700 2200 2700
Wire Notes Line
	2200 2700 2200 4000
Wire Notes Line
	2200 4000 800  4000
Wire Notes Line
	800  4000 800  2700
Wire Wire Line
	7700 5500 7900 5500
Wire Wire Line
	7900 5500 7900 5600
Wire Wire Line
	7900 5800 7900 5900
Wire Wire Line
	9300 1550 9300 1750
Wire Wire Line
	9200 3750 9200 3850
Wire Wire Line
	9400 3750 9600 3750
Wire Wire Line
	2600 6000 2600 6100
Wire Wire Line
	3300 5300 4000 5300
$Comp
L beerbob:ESP32-WROOM-32 U2
U 1 1 5BFE9135
P 4750 3000
F 0 "U2" H 4550 4587 60  0000 C CNN
F 1 "ESP32-WROOM-32" H 4550 4481 60  0000 C CNN
F 2 "RF_Module:ESP32-WROOM-32" H 4550 1850 60  0001 C CNN
F 3 "https://www.espressif.com/sites/default/files/documentation/esp32-wroom-32_datasheet_en.pdf" H 4550 1850 60  0001 C CNN
	1    4750 3000
	1    0    0    -1  
$EndComp
$Comp
L power:+3.3V #PWR03
U 1 1 5BFEADB8
P 3300 4900
F 0 "#PWR03" H 3300 4750 50  0001 C CNN
F 1 "+3.3V" H 3300 5040 50  0000 C CNN
F 2 "" H 3300 4900 50  0001 C CNN
F 3 "" H 3300 4900 50  0001 C CNN
	1    3300 4900
	1    0    0    -1  
$EndComp
Wire Wire Line
	3550 1750 3550 1650
Wire Wire Line
	3550 1750 3800 1750
$Comp
L power:GND #PWR04
U 1 1 5BFF23F7
P 4350 4600
F 0 "#PWR04" H 4350 4350 50  0001 C CNN
F 1 "GND" H 4350 4450 50  0000 C CNN
F 2 "" H 4350 4600 50  0001 C CNN
F 3 "" H 4350 4600 50  0001 C CNN
	1    4350 4600
	1    0    0    -1  
$EndComp
Wire Wire Line
	4350 4500 4450 4500
Wire Wire Line
	4650 4500 4650 4400
Connection ~ 4350 4500
Wire Wire Line
	4350 4500 4350 4400
Wire Wire Line
	4550 4500 4550 4400
Connection ~ 4550 4500
Wire Wire Line
	4550 4500 4650 4500
Wire Wire Line
	4450 4500 4450 4400
Connection ~ 4450 4500
Wire Wire Line
	4450 4500 4550 4500
Wire Wire Line
	4350 4600 4350 4500
Wire Wire Line
	3300 2450 3800 2450
Wire Wire Line
	3300 2550 3800 2550
Text Label 3400 2450 0    60   ~ 0
ESP_TX
Text Label 3400 2550 0    60   ~ 0
ESP_RX
$Comp
L BeerBob-rescue:R_Small R2
U 1 1 5C00ADE6
P 2850 1650
F 0 "R2" H 2909 1696 50  0000 L CNN
F 1 "120k" H 2909 1605 50  0000 L CNN
F 2 "Resistor_SMD:R_0603_1608Metric" H 2850 1650 50  0001 C CNN
F 3 "" H 2850 1650 50  0001 C CNN
	1    2850 1650
	1    0    0    -1  
$EndComp
$Comp
L power:+3.3V #PWR01
U 1 1 5C00AE90
P 2850 1450
F 0 "#PWR01" H 2850 1300 50  0001 C CNN
F 1 "+3.3V" H 2850 1590 50  0000 C CNN
F 2 "" H 2850 1450 50  0001 C CNN
F 3 "" H 2850 1450 50  0001 C CNN
	1    2850 1450
	1    0    0    -1  
$EndComp
Wire Wire Line
	2850 1550 2850 1450
Wire Wire Line
	2850 1750 2850 1850
Wire Wire Line
	2850 1850 3800 1850
$Comp
L Device:C_Small C3
U 1 1 5C00F09D
P 2850 2050
F 0 "C3" H 2860 2120 50  0000 L CNN
F 1 "100n" H 2860 1970 50  0000 L CNN
F 2 "Capacitor_SMD:C_0603_1608Metric" H 2850 2050 50  0001 C CNN
F 3 "" H 2850 2050 50  0001 C CNN
	1    2850 2050
	1    0    0    -1  
$EndComp
$Comp
L BeerBob-rescue:GND #PWR02
U 1 1 5C00F0AA
P 2850 2250
F 0 "#PWR02" H 2850 2000 50  0001 C CNN
F 1 "GND" H 2850 2100 50  0000 C CNN
F 2 "" H 2850 2250 50  0001 C CNN
F 3 "" H 2850 2250 50  0001 C CNN
	1    2850 2250
	1    0    0    -1  
$EndComp
Wire Wire Line
	2850 1950 2850 1850
Wire Wire Line
	2850 2150 2850 2250
Connection ~ 2850 1850
Text Label 5400 1750 0    60   ~ 0
ESP_BOOT_SDA
$Comp
L Switch:SW_Push SW1
U 1 1 5C017A7F
P 6700 3150
F 0 "SW1" H 6700 3435 50  0000 C CNN
F 1 "SW_Push" H 6700 3344 50  0000 C CNN
F 2 "Button_Switch_SMD:SW_SPST_FSMSM" H 6700 3350 50  0001 C CNN
F 3 "" H 6700 3350 50  0001 C CNN
	1    6700 3150
	1    0    0    -1  
$EndComp
$Comp
L BeerBob-rescue:R_Small R3
U 1 1 5C019BF0
P 6150 2950
F 0 "R3" H 6209 2996 50  0000 L CNN
F 1 "820k" H 6209 2905 50  0000 L CNN
F 2 "Resistor_SMD:R_0603_1608Metric" H 6150 2950 50  0001 C CNN
F 3 "" H 6150 2950 50  0001 C CNN
	1    6150 2950
	1    0    0    -1  
$EndComp
Wire Wire Line
	6150 3050 6150 3150
Connection ~ 6150 3150
Wire Wire Line
	6150 3150 6500 3150
$Comp
L power:+3.3V #PWR05
U 1 1 5C01BB50
P 6150 2750
F 0 "#PWR05" H 6150 2600 50  0001 C CNN
F 1 "+3.3V" H 6150 2890 50  0000 C CNN
F 2 "" H 6150 2750 50  0001 C CNN
F 3 "" H 6150 2750 50  0001 C CNN
	1    6150 2750
	1    0    0    -1  
$EndComp
Wire Wire Line
	6150 2850 6150 2750
$Comp
L BeerBob-rescue:GND #PWR053
U 1 1 5C0219C8
P 7000 3250
F 0 "#PWR053" H 7000 3000 50  0001 C CNN
F 1 "GND" H 7005 3077 50  0000 C CNN
F 2 "" H 7000 3250 50  0001 C CNN
F 3 "" H 7000 3250 50  0001 C CNN
	1    7000 3250
	1    0    0    -1  
$EndComp
Wire Wire Line
	6900 3150 7000 3150
Wire Wire Line
	7000 3150 7000 3250
Wire Wire Line
	900  3100 1750 3100
Wire Wire Line
	900  3200 1750 3200
Wire Wire Line
	900  3300 1750 3300
Wire Wire Line
	900  3400 1750 3400
Wire Wire Line
	1100 3500 1750 3500
Wire Wire Line
	1300 3600 1750 3600
Wire Wire Line
	6000 3250 5300 3250
Wire Wire Line
	5300 3150 6150 3150
Text Label 5400 3150 0    60   ~ 0
BUTTON
$Comp
L Device:LED_Small_ALT D3
U 1 1 5BFF769A
P 7150 2250
F 0 "D3" H 7150 2045 50  0000 C CNN
F 1 "LED_Small_ALT" H 7150 2136 50  0000 C CNN
F 2 "LED_SMD:LED_0603_1608Metric" V 7150 2250 50  0001 C CNN
F 3 "~" V 7150 2250 50  0001 C CNN
	1    7150 2250
	-1   0    0    1   
$EndComp
Wire Wire Line
	6750 2250 7050 2250
$Comp
L Device:R_Small R5
U 1 1 5BFF9F37
P 6650 2250
F 0 "R5" V 6454 2250 50  0000 C CNN
F 1 "1K" V 6545 2250 50  0000 C CNN
F 2 "Resistor_SMD:R_0603_1608Metric" H 6650 2250 50  0001 C CNN
F 3 "~" H 6650 2250 50  0001 C CNN
	1    6650 2250
	0    1    1    0   
$EndComp
$Comp
L power:GND #PWR0101
U 1 1 5BFFA002
P 7350 2350
F 0 "#PWR0101" H 7350 2100 50  0001 C CNN
F 1 "GND" H 7355 2177 50  0000 C CNN
F 2 "" H 7350 2350 50  0001 C CNN
F 3 "" H 7350 2350 50  0001 C CNN
	1    7350 2350
	1    0    0    -1  
$EndComp
Wire Wire Line
	7250 2250 7350 2250
Wire Wire Line
	7350 2250 7350 2350
Text Label 5400 3050 0    60   ~ 0
LED
Wire Wire Line
	5300 3050 5900 3050
Wire Wire Line
	5900 3050 5900 2250
Wire Wire Line
	5900 2250 6550 2250
$Comp
L Device:R_Small R7
U 1 1 5C022526
P 7450 1300
F 0 "R7" V 7254 1300 50  0000 C CNN
F 1 "0R" V 7345 1300 50  0000 C CNN
F 2 "Resistor_SMD:R_0603_1608Metric" H 7450 1300 50  0001 C CNN
F 3 "~" H 7450 1300 50  0001 C CNN
	1    7450 1300
	0    1    1    0   
$EndComp
$Comp
L Device:R_Small R8
U 1 1 5C0225C7
P 7450 1600
F 0 "R8" V 7254 1600 50  0000 C CNN
F 1 "0R" V 7345 1600 50  0000 C CNN
F 2 "Resistor_SMD:R_0603_1608Metric" H 7450 1600 50  0001 C CNN
F 3 "~" H 7450 1600 50  0001 C CNN
	1    7450 1600
	0    1    1    0   
$EndComp
Text Label 7650 1600 0    60   ~ 0
SCL
Wire Wire Line
	7850 1600 7650 1600
Wire Wire Line
	5300 1750 6100 1750
$Comp
L Device:R_Small R6
U 1 1 5C02DCE1
P 6100 1250
F 0 "R6" H 6159 1296 50  0000 L CNN
F 1 "120K" H 6159 1205 50  0000 L CNN
F 2 "Resistor_SMD:R_0603_1608Metric" H 6100 1250 50  0001 C CNN
F 3 "~" H 6100 1250 50  0001 C CNN
	1    6100 1250
	1    0    0    -1  
$EndComp
$Comp
L power:+3.3V #PWR054
U 1 1 5C02DDC7
P 6100 1050
F 0 "#PWR054" H 6100 900 50  0001 C CNN
F 1 "+3.3V" H 6115 1223 50  0000 C CNN
F 2 "" H 6100 1050 50  0001 C CNN
F 3 "" H 6100 1050 50  0001 C CNN
	1    6100 1050
	1    0    0    -1  
$EndComp
Wire Wire Line
	6100 1050 6100 1150
Wire Wire Line
	6100 1350 6100 1750
Text Notes 4900 1300 0    60   ~ 0
PULLUP ON GPIO0\nDO NOT MOUNT IF THIS\nIS THE MAIN I2C LINE
Text Notes 4900 1000 0    79   Italic 16
DESIGN NOTE:
Text Notes 6300 950  0    60   ~ 0
SELECT ON WHICH PINS\nTO ROUTE I2C\nDEFAULT: IO0 + IO4
Text Notes 6300 650  0    79   Italic 16
DESIGN NOTE:
$Comp
L Device:R_Small R9
U 1 1 5C046E6B
P 7450 1000
F 0 "R9" V 7254 1000 50  0000 C CNN
F 1 "0R" V 7345 1000 50  0000 C CNN
F 2 "Resistor_SMD:R_0603_1608Metric" H 7450 1000 50  0001 C CNN
F 3 "~" H 7450 1000 50  0001 C CNN
	1    7450 1000
	0    1    1    0   
$EndComp
Text Label 7650 1000 0    60   ~ 0
SDA
Wire Wire Line
	7850 1000 7650 1000
Wire Wire Line
	7550 1300 7650 1300
Wire Wire Line
	7650 1300 7650 1000
Connection ~ 7650 1000
Wire Wire Line
	7650 1000 7550 1000
Wire Wire Line
	9100 1300 8800 1300
Wire Wire Line
	9100 1500 8500 1500
$Comp
L Device:R_Small R18
U 1 1 5C05CCD1
P 7450 1900
F 0 "R18" V 7254 1900 50  0000 C CNN
F 1 "0R" V 7345 1900 50  0000 C CNN
F 2 "Resistor_SMD:R_0603_1608Metric" H 7450 1900 50  0001 C CNN
F 3 "~" H 7450 1900 50  0001 C CNN
	1    7450 1900
	0    1    1    0   
$EndComp
Wire Wire Line
	7550 1900 7650 1900
Wire Wire Line
	7650 1900 7650 1600
Connection ~ 7650 1600
Wire Wire Line
	7650 1600 7550 1600
Wire Wire Line
	5300 1850 6950 1850
Wire Wire Line
	6950 1850 6950 1600
Wire Wire Line
	6950 1600 7350 1600
Wire Wire Line
	7050 1950 7050 1900
Wire Wire Line
	7050 1900 7350 1900
Wire Wire Line
	5300 1950 7050 1950
Wire Wire Line
	5300 2450 5700 2450
Wire Wire Line
	5700 2450 5700 2100
Wire Wire Line
	6550 2100 6550 1300
Wire Wire Line
	5700 2100 6550 2100
Wire Wire Line
	6550 1300 7350 1300
Wire Wire Line
	6100 1750 6450 1750
Wire Wire Line
	6450 1750 6450 1000
Wire Wire Line
	6450 1000 7350 1000
Connection ~ 6100 1750
Wire Wire Line
	5800 2550 5300 2550
$EndSCHEMATC
