(module BAT_CON (layer F.Cu) (tedit 5AEF5B66)
  (fp_text reference REF** (at 0 2.3) (layer F.SilkS)
    (effects (font (size 1 1) (thickness 0.15)))
  )
  (fp_text value BAT_CON (at 0.1 -2.4) (layer F.Fab)
    (effects (font (size 1 1) (thickness 0.15)))
  )
  (pad 1 thru_hole oval (at 0 0) (size 4 2.7) (drill oval 2.8 1.5) (layers *.Cu *.Mask))
)
