(module Texas_S-PWSON-N10_BB (layer F.Cu) (tedit 5AEF6CC7)
  (descr "3x3mm Body, 0.5mm Pitch, S-PWSON-N10, DSC, http://www.ti.com/lit/ds/symlink/tps63060.pdf")
  (tags "0.5 S-PWSON-N10 DSC")
  (attr smd)
  (fp_text reference REF** (at 0 -2.8) (layer F.SilkS)
    (effects (font (size 1 1) (thickness 0.15)))
  )
  (fp_text value Texas_R-PWSON-N10_2.4x2.4 (at 0 2.8) (layer F.Fab)
    (effects (font (size 1 1) (thickness 0.15)))
  )
  (fp_line (start -0.8 -1.2) (end -1.2 -0.8) (layer F.Fab) (width 0.1))
  (fp_line (start -1.2 1.2) (end -1.2 -0.7875) (layer F.Fab) (width 0.1))
  (fp_line (start 1.2 1.2) (end -1.2 1.2) (layer F.Fab) (width 0.1))
  (fp_line (start 1.2 -1.2) (end 1.2 1.2) (layer F.Fab) (width 0.1))
  (fp_line (start -0.7875 -1.2) (end 1.2 -1.2) (layer F.Fab) (width 0.1))
  (fp_line (start -2.15 -2.03) (end -2.15 2.03) (layer F.CrtYd) (width 0.05))
  (fp_line (start 2.15 -2.03) (end 2.15 2.03) (layer F.CrtYd) (width 0.05))
  (fp_line (start -2.15 -2.03) (end 2.15 -2.03) (layer F.CrtYd) (width 0.05))
  (fp_line (start -2.15 2.03) (end 2.15 2.03) (layer F.CrtYd) (width 0.05))
  (fp_line (start 1 1.6) (end 1.7 1.6) (layer F.SilkS) (width 0.12))
  (fp_line (start -1.9 -1.6) (end 0 -1.6) (layer F.SilkS) (width 0.12))
  (fp_line (start 1 -1.6) (end 1.7 -1.6) (layer F.SilkS) (width 0.12))
  (fp_line (start -1.7 1.6) (end -1 1.6) (layer F.SilkS) (width 0.12))
  (fp_text user %R (at 0 0) (layer F.Fab)
    (effects (font (size 0.6 0.6) (thickness 0.09)))
  )
  (pad 1 smd oval (at -1.35 -1) (size 1 0.28) (layers F.Cu F.Paste F.Mask)
    (solder_mask_margin 0.07) (solder_paste_margin -0.025))
  (pad 2 smd oval (at -1.35 -0.5) (size 1 0.28) (layers F.Cu F.Paste F.Mask)
    (solder_mask_margin 0.07) (solder_paste_margin -0.025))
  (pad 4 smd oval (at -1.35 0.5) (size 1 0.28) (layers F.Cu F.Paste F.Mask)
    (solder_mask_margin 0.07) (solder_paste_margin -0.025))
  (pad 6 smd oval (at 1.35 1) (size 1 0.28) (layers F.Cu F.Paste F.Mask)
    (solder_mask_margin 0.07) (solder_paste_margin -0.025))
  (pad 7 smd oval (at 1.35 0.5) (size 1 0.28) (layers F.Cu F.Paste F.Mask)
    (solder_mask_margin 0.07) (solder_paste_margin -0.025))
  (pad 11 smd rect (at 0 0) (size 1.2 2) (layers F.Cu F.Mask))
  (pad 3 smd oval (at -1.35 0) (size 1 0.28) (layers F.Cu F.Paste F.Mask)
    (solder_mask_margin 0.07) (solder_paste_margin -0.025))
  (pad 5 smd oval (at -1.35 1) (size 1 0.28) (layers F.Cu F.Paste F.Mask)
    (solder_mask_margin 0.07) (solder_paste_margin -0.025))
  (pad 8 smd oval (at 1.35 0) (size 1 0.28) (layers F.Cu F.Paste F.Mask)
    (solder_mask_margin 0.07) (solder_paste_margin -0.025))
  (pad 9 smd oval (at 1.35 -0.5) (size 1 0.28) (layers F.Cu F.Paste F.Mask)
    (solder_mask_margin 0.07) (solder_paste_margin -0.025))
  (pad 10 smd oval (at 1.35 -1) (size 1 0.28) (layers F.Cu F.Paste F.Mask)
    (solder_mask_margin 0.07) (solder_paste_margin -0.025))
  (pad 11 smd rect (at -0.3 -0.5) (size 0.5 0.9) (layers F.Cu F.Paste F.Mask))
  (pad 11 smd rect (at 0.3 0.5) (size 0.5 0.9) (layers F.Cu F.Paste F.Mask))
  (pad 11 smd rect (at -0.3 0.5) (size 0.5 0.9) (layers F.Cu F.Paste F.Mask))
  (pad 11 smd rect (at 0.3 -0.5) (size 0.5 0.9) (layers F.Cu F.Paste F.Mask))
  (model Housings_SON.3dshapes/Texas_S-PVSON-N10.wrl
    (at (xyz 0 0 0))
    (scale (xyz 1 1 1))
    (rotate (xyz 0 0 0))
  )
)
