(module TEXAS_S_PDSO_N6_1.5x1.5_BB (layer F.Cu) (tedit 5AEF6BFC)
  (descr "16-Lead Plastic Quad Flat, No Lead Package (NG) - 3x3x0.9 mm Body [QFN]; (see Microchip Packaging Specification 00000049BS.pdf)")
  (tags "QFN 0.5")
  (attr smd)
  (fp_text reference REF** (at 0 -2.1) (layer F.SilkS)
    (effects (font (size 1 1) (thickness 0.15)))
  )
  (fp_text value SON-1.5x1.5mm_Pitch0.5mm (at 0 2.85) (layer F.Fab)
    (effects (font (size 1 1) (thickness 0.2)))
  )
  (fp_line (start -0.5 -0.8) (end -0.8 -0.5) (layer F.Fab) (width 0.15))
  (fp_line (start -0.5 -0.8) (end 0.8 -0.8) (layer F.Fab) (width 0.15))
  (fp_line (start 0.8 -0.8) (end 0.8 0.8) (layer F.Fab) (width 0.15))
  (fp_line (start 0.8 0.8) (end -0.8 0.8) (layer F.Fab) (width 0.15))
  (fp_line (start -0.8 0.8) (end -0.8 -0.5) (layer F.Fab) (width 0.15))
  (fp_line (start -2.1 -2.1) (end -2.1 2.1) (layer F.CrtYd) (width 0.05))
  (fp_line (start 2.1 -2.1) (end 2.1 2.1) (layer F.CrtYd) (width 0.05))
  (fp_line (start -2.1 -2.1) (end 2.1 -2.1) (layer F.CrtYd) (width 0.05))
  (fp_line (start -2.1 2.1) (end 2.1 2.1) (layer F.CrtYd) (width 0.05))
  (fp_line (start 1 -1) (end 1 -0.8) (layer F.SilkS) (width 0.15))
  (fp_line (start -1 1) (end -1 0.8) (layer F.SilkS) (width 0.15))
  (fp_line (start 1 1) (end 1 0.8) (layer F.SilkS) (width 0.15))
  (fp_line (start -1.1 -1) (end -0.1 -1) (layer F.SilkS) (width 0.15))
  (fp_line (start -1 1) (end -0.3 1) (layer F.SilkS) (width 0.15))
  (fp_line (start 1 1) (end 0.3 1) (layer F.SilkS) (width 0.15))
  (fp_line (start 1 -1) (end 0.3 -1) (layer F.SilkS) (width 0.15))
  (pad 1 smd oval (at -0.6 -0.5) (size 0.8 0.23) (layers F.Cu F.Paste F.Mask))
  (pad 2 smd oval (at -0.6 0) (size 0.8 0.23) (layers F.Cu F.Paste F.Mask))
  (pad 3 smd oval (at -0.6 0.5) (size 0.8 0.23) (layers F.Cu F.Paste F.Mask))
  (pad 4 smd oval (at 0.6 0.5) (size 0.8 0.23) (layers F.Cu F.Paste F.Mask))
  (pad 5 smd oval (at 0.6 0 180) (size 0.8 0.23) (layers F.Cu F.Paste F.Mask))
  (pad 6 smd oval (at 0.6 -0.5 180) (size 0.8 0.23) (layers F.Cu F.Paste F.Mask))
  (model Housings_SON.3dshapes/WSON6_1.5x1.5mm_Pitch0.5mm.wrl
    (at (xyz 0 0 0))
    (scale (xyz 1 1 1))
    (rotate (xyz 0 0 0))
  )
)
