(module TI_WSON_6P_2x2 (layer F.Cu) (tedit 5AEF5017)
  (descr "16-Lead Plastic Quad Flat, No Lead Package (NG) - 3x3x0.9 mm Body [QFN]; (see Microchip Packaging Specification 00000049BS.pdf)")
  (tags "QFN 0.5")
  (attr smd)
  (fp_text reference REF** (at 0 -2.1) (layer F.SilkS)
    (effects (font (size 1 1) (thickness 0.15)))
  )
  (fp_text value WSON-6-1EP_2x2mm_Pitch0.65mm (at 0 2.85) (layer F.Fab)
    (effects (font (size 1 1) (thickness 0.2)))
  )
  (fp_line (start -0.5 -1) (end 1 -1) (layer F.Fab) (width 0.15))
  (fp_line (start 1 -1) (end 1 1) (layer F.Fab) (width 0.15))
  (fp_line (start 1 1) (end -1 1) (layer F.Fab) (width 0.15))
  (fp_line (start -1 1) (end -1 -0.5) (layer F.Fab) (width 0.15))
  (fp_line (start -1 -0.5) (end -0.5 -1) (layer F.Fab) (width 0.15))
  (fp_line (start -2.1 -2.1) (end -2.1 2.1) (layer F.CrtYd) (width 0.05))
  (fp_line (start 2.1 -2.1) (end 2.1 2.1) (layer F.CrtYd) (width 0.05))
  (fp_line (start -2.1 -2.1) (end 2.1 -2.1) (layer F.CrtYd) (width 0.05))
  (fp_line (start -2.1 2.1) (end 2.1 2.1) (layer F.CrtYd) (width 0.05))
  (fp_line (start 1.2 -1.2) (end 1.2 -1) (layer F.SilkS) (width 0.15))
  (fp_line (start -1.2 1.2) (end -1.2 1) (layer F.SilkS) (width 0.15))
  (fp_line (start 1.2 1.2) (end 1.2 1) (layer F.SilkS) (width 0.15))
  (fp_line (start -1.2 -1.2) (end -0.4 -1.2) (layer F.SilkS) (width 0.15))
  (fp_line (start -1.2 1.2) (end -0.8 1.2) (layer F.SilkS) (width 0.15))
  (fp_line (start 1.2 1.2) (end 0.8 1.2) (layer F.SilkS) (width 0.15))
  (fp_line (start 1.2 -1.2) (end 0.8 -1.2) (layer F.SilkS) (width 0.15))
  (pad 1 smd oval (at -1.1 -0.65) (size 0.8 0.3) (layers F.Cu F.Paste F.Mask))
  (pad 2 smd oval (at -1.1 0) (size 0.8 0.3) (layers F.Cu F.Paste F.Mask))
  (pad 3 smd oval (at -1.1 0.65) (size 0.8 0.3) (layers F.Cu F.Paste F.Mask))
  (pad 4 smd oval (at 1.1 0.65) (size 0.8 0.3) (layers F.Cu F.Paste F.Mask))
  (pad 5 smd oval (at 1.1 0 180) (size 0.8 0.3) (layers F.Cu F.Paste F.Mask))
  (pad 6 smd oval (at 1.1 -0.65 180) (size 0.8 0.3) (layers F.Cu F.Paste F.Mask))
  (pad 7 smd rect (at 0 0 180) (size 1 1.6) (layers F.Cu F.Paste F.Mask))
  (model Housings_DFN_QFN.3dshapes/DFN-6-1EP_2x2mm_Pitch0.65mm.wrl
    (at (xyz 0 0 0))
    (scale (xyz 1 1 1))
    (rotate (xyz 0 0 0))
  )
)
